<?xml version="1.0" encoding="UTF-8" standalone="no"?>
<svg
   xmlns:dc="http://purl.org/dc/elements/1.1/"
   xmlns:cc="http://creativecommons.org/ns#"
   xmlns:rdf="http://www.w3.org/1999/02/22-rdf-syntax-ns#"
   xmlns:svg="http://www.w3.org/2000/svg"
   xmlns="http://www.w3.org/2000/svg"
   xmlns:sodipodi="http://sodipodi.sourceforge.net/DTD/sodipodi-0.dtd"
   xmlns:inkscape="http://www.inkscape.org/namespaces/inkscape"
   width="22486"
   height="1776"
   id="svg2"
   version="1.1"
   inkscape:version="0.91 r13725"
   sodipodi:docname="phrase-cataclop.png.svg">
  <metadata
     id="metadata10">
    <rdf:RDF>
      <cc:Work
         rdf:about="">
        <dc:format>image/svg+xml</dc:format>
        <dc:type
           rdf:resource="http://purl.org/dc/dcmitype/StillImage" />
      </cc:Work>
    </rdf:RDF>
  </metadata>
  <defs
     id="defs8" />
  <sodipodi:namedview
     pagecolor="#ffffff"
     bordercolor="#666666"
     borderopacity="1"
     objecttolerance="10"
     gridtolerance="10"
     guidetolerance="10"
     inkscape:pageopacity="0"
     inkscape:pageshadow="2"
     inkscape:window-width="1276"
     inkscape:window-height="775"
     id="namedview6"
     showgrid="false"
     showguides="true"
     inkscape:guide-bbox="true"
     inkscape:zoom="0.11598328"
     inkscape:cx="103.82237"
     inkscape:cy="1363.3444"
     inkscape:window-x="0"
     inkscape:window-y="21"
     inkscape:window-maximized="1"
     inkscape:current-layer="svg2">
    <sodipodi:guide
       position="21671.227,599.22431"
       orientation="0,1"
       id="guide5414" />
  </sodipodi:namedview>
  <path
     id="path5096"
     style="stroke:#040404; fill:none;"
     d="m 1173,264 0,62 m -522,-69 0,17 M 350,256 c -24.046,4.977 -45.184,24.827 -71,16.779 C 249.801,263.677 245.565,217.548 263.329,196 283.603,171.407 319.962,166.083 350,166 M 0,147 l 9,0 m 1455,-7 109,0 m 97,-23 c -6.1,11.435 -2,33.112 -2,46 l 0,112 M 2740,112 c -6.32,11.844 -2,34.638 -2,48 l 0,115 m 250,-39 c 5.95,44.165 85.2,56.452 92.7,8 1.01,-6.48 0.97,-12.508 0.12,-19 -7.33,-55.666 -93.14,-27.156 -95.78,-87 -0.53,-12 1.99,-25.241 11.05,-33.815 25.54,-24.1553 77.54,-9.9893 82.91,25.815 M 2598,93.4252 c 27.1,-3.6885 46.47,12.2408 56.2,36.5748 11.98,29.943 12.31,69.438 2.13,100 -6.77,20.349 -19.54,39.639 -42.33,42.718 -59.53,8.041 -69.33,-65.19 -65.17,-108.718 0.92,-9.648 1.85,-18.698 4.83,-28 7.12,-22.22 20.2,-39.2892 44.34,-42.5748 m -184,0 c 27.42,-3.7322 46.23,12.2728 56.42,36.5748 12.31,29.347 11.33,67.75 2.72,98 -6.07,21.317 -19.74,41.558 -43.14,44.718 -28.11,3.795 -46.41,-11.808 -57,-36.718 -12.71,-29.889 -12.74,-71.326 -2.52,-102 7.1,-21.294 20.53,-37.4453 43.52,-40.5748 m -356,0 c 26.88,-3.6586 46.6,12.1958 56.06,36.5748 11.82,30.476 12.18,68.908 2.1,100 -6.56,20.267 -19.52,39.659 -42.16,42.718 -28.52,3.852 -47.44,-12.05 -57.8,-37.718 -12.01,-29.77 -12.48,-69.585 -2.28,-100 7.35,-21.89 20.19,-38.3225 44.08,-41.5748 m -1025,-8e-4 c 26.87,-3.571 46.58,12.1426 56.06,36.5756 11.89,30.642 11.68,68.752 1.97,100 -6.22,20.01 -19.78,39.712 -42.03,42.718 -28.32,3.826 -46.63,-11.487 -57.421,-36.718 -12.673,-29.632 -13.072,-70.492 -2.912,-101 7.29,-21.892 20.623,-38.4241 44.333,-41.5756 M 837,228 c -3.202,16.5 -12.826,32.54 -28,40.676 -28.633,15.353 -63.255,-2.528 -74.551,-30.676 -13.771,-34.317 -14.923,-85.649 5.012,-118 16.558,-26.8729 55.216,-37.3806 80.539,-15.7 11.414,9.773 13.509,20.707 19,33.7 m 2003,-46 75,0 m -179,0 1,20 c 22.16,-7.212 40.95,-19.984 65,-20 m -614,0 c 6.13,16.253 9.16,34.155 13.37,51 6.93,27.716 14.24,55.312 21.26,83 2.79,11.042 5.06,41.141 19.37,43.02 15.07,1.979 17.27,-29.534 19.63,-39.02 11.26,-45.292 21.94,-91.296 31.37,-137 m -461,-1 78,0 c 5.86,0 23.17,-2.9108 27.36,1.6034 2.71,2.9244 -0.24,10.0396 -1.01,13.3966 -3.05,13.208 -13.6,24.868 -21.02,36 -20.84,31.271 -40.98,63.065 -62.3,94 -5.63,8.167 -9.99,15.34 -12.4,25 -0.76,3.029 -2.88,7.792 -0.85,10.682 2.61,3.741 10.31,2.318 14.22,2.318 l 41,0 49,0 m -278,-183 1,25 c 5.55,-1.879 12.91,-3.464 17.71,-6.843 5.11,-3.597 8.62,-8.742 14.29,-11.7581 13.64,-7.2522 32.35,-8.8669 47,-3.7893 19.89,6.8934 19,29.1324 19,46.3904 l 0,134 M 1173,92 c 0,3.3973 -1.62,12.735 1.6,14.879 5.92,3.931 22.99,-6.114 28.4,-8.5665 14.76,-6.6968 35.69,-8.0656 49,2.3575 32.71,25.61 28.57,82.425 23.71,119.33 -3.66,27.839 -20.01,56.29 -51.71,54.896 -9.48,-0.417 -18.35,-3.07 -27,-6.69 -5.96,-2.494 -19.03,-1.524 -22.68,-7.485 C 1168.89,251.862 1173,230.27 1173,220 l 0,-72 c 0,-13.101 -1.4,-27.092 1,-40 m -618,19 c 2.4,-10.103 8.456,-21.092 17.001,-27.2107 18.301,-13.1055 56.689,-11.4729 70.149,8.2147 7.852,11.486 7.85,27.633 7.85,40.996 l 0,69 c 0,8.788 3.669,28.226 -1.028,35.722 -3.186,5.084 -13.776,5.379 -18.972,7.396 -18.643,7.239 -33.826,19.196 -55,10.57 C 546.32,259.596 546.789,212.97 566.289,192.089 586.408,170.547 622.137,166.077 650,166 m -240,-74 75,0 m -228,34 c 5.604,-37.2505 70.451,-48.8403 88.12,-15 8.522,16.321 5.729,37.22 5.729,55 L 351,274 m 2513,-248 0,176 c 0,15.943 -0.86,32.152 0.83,48 0.66,6.085 0.73,13.696 4.87,18.66 9.08,10.881 35.78,6.34 48.3,6.34 m -1332,-1 -89,0 c -7.16,0 -26.73,3.457 -32.4,-1.028 -2.82,-2.233 -1.6,-8.821 -1.6,-11.972 l 0,-36 0,-145 0,-39 c 0,-3.4758 -1.48,-11.5317 1.6,-13.9723 C 1470.27,22.5431 1489.84,26 1497,26 l 90,0 m -1155,0 0,177 c 0,15.308 -0.691,30.776 0.831,46 0.669,6.687 0.662,14.541 5.468,19.866 9.53,10.56 34.942,6.134 47.701,6.134 M 185,197 c -2.874,22.721 -12.947,45.736 -31,60.536 C 120.669,284.859 64.5069,280.013 38.7562,245 24.5148,225.636 18.6913,203.23 14.615,180 12.7828,169.559 16.1181,155.417 9,147 15.3625,139.477 12.9564,127.419 14.439,118 17.5693,98.1134 22.3486,77.8269 34.0394,61 61.6618,21.2419 122.559,12.2329 160,45.1844 174.088,57.5835 181.589,73.8951 185,92 m 726,-78 0,197 0.834,41 4.596,17.775 L 930,275" />
  <path
     id="path4"
     style="fill:none;stroke:#040404"
     d="m 39904.816,1227.5526 0,13 m -340,-13 0,13 m -3058,-13 0,13 m -11263,-13 0,13 m 2344,-59 3,-3 4,4 m 16274,-5 3,4 m -16277,-5 3,3 m 16275,0 2,-6 m -16287,-1 0,1 m 13,1 10,-4 m 16249,0 2,0 m -2,-4.0001 3,0 m -363,0 0,74.0001 m -8476,-74.0001 0,74.0001 m -1867,-74.0001 0,74.0001 m -1426,-74.0001 0,74.0001 m -3019,-74.0001 0,74.0001 m -1127,-74.0001 -1,4.0001 1,-4.0001 m -2033,0 0,74.0001 m -2255,-74.0001 0,74.0001 m 7805,-75.0001 2,12.0001 m -1628,-12.0001 2,12.0001 m -1884,-12.0001 7,9.0001 -10,11 m -5563,-20.0001 2,12.0001 m 21846,-15.0001 8,8.0001 m -16300,-8.0001 0,1 m 16270,-2 4,8.0001 m -16282,-8.0001 3,3 m 16290,-4 0,2 m -17,-2 c -2.6,5.05 -2.3,20.0901 2.6,23.9701 2.5,1.94 7.5,1.03 10.4,1.03 m 0,-26.0001 0,4 m -4,-4 -1,1 m -1426,-1 0,17.0001 m -3163,-17.0001 0,17.0001 m -7269,-17.0001 0,17.0001 m -4420,-17.0001 -2,2 m -4,-2 c -4.8,11.4801 -0.9,29.4001 14,25.0001 l -4,-11 m 16294,-15.0001 6,10.0001 m -108,-10.0001 0,18.0001 m -4161,-18.0001 c 0,13.5401 0.4,29.6001 -5.8,42.0001 -14.5,29.1 -54.5,31.39 -82.2,22 m -2970,-64.0001 c 0,12.3301 0,26.3301 -4.5,38.0001 -13.2,34.45 -54.3,33.81 -84.5,26 m -1266,-64.0001 0,18.0001 m -2532,-18.0001 0,18.0001 m -1315,-18.0001 0,18.0001 m -4986,-18.0001 0,18.0001 m -639,-18.0001 0,18.0001 m -2255,-18.0001 0,18.0001 m -1195,-18.0001 0,18.0001 m 21594,-19.0001 -2,2 m -16292,-2 2,3 m -83,-3 2,19.0001 m 94,-20.0001 -2,4 m -6,-4 4,4 m 0,-3 0,-2 4,1 m 16789,-2 3,0 m -16806,0 3,5 m 16288,-6 -3,6 m -16287,-7 2,4 m 16287,-6 6,8 -4,4 c -1.6,-2.58 -1.5,-2.7 -4,-1 m -12,-11 0,2 m -16278,-5 7,8 m 16269,-9 c -4.4,4.73 -5.9,8.71 -4,15 l 4,-5 m -16275,-11 c -7.42,7.67 -5.58,10.94 0,19 m 16277,-21 5,14 -5,-5 -1,3 1,1 1,1 1,1 m -15599,-16 c 0.28,8.72 8.46,11.28 10.57,19 3.26,11.9501 -1.05,33.5101 -5.12,45.0001 -5.12,14.47 -21.62,19.23 -25.45,34 m 10306,-99.0001 c 0.1,9.23 7.5,11.23 10.4,19 4.3,11.6301 -0.8,33.5901 -4.5,45.0001 -4.7,14.93 -21,19.91 -24.9,35 m -10943,-103.0001 c -7.47,8.87 4.92,13.01 0,23 m 15729,-76 106,0 m -1840,74 c -24.3,5.57 -45.8,24.9801 -72,16.4001 -29.3,-9.6201 -31,-56.4401 -13.7,-77.4001 19.7,-23.83 56.7,-28.92 85.7,-29 m -666,90 c -24.3,5.58 -45.7,25.0201 -72,16.4001 -29.3,-9.5901 -30.9,-56.5201 -13.7,-77.4001 19.7,-23.8 56.7,-28.92 85.7,-29 m -1125,90 c -25,3.69 -45.3,25.8701 -72,16.4501 -29.6,-10.4301 -32,-57.1601 -13.1,-78.4101 20.4,-23 56,-27.96 85.1,-28.04 m -2107,90 c -24.1,4.98 -45.1,24.8501 -71,16.7801 -29.1,-9.0801 -33.3,-55.3001 -15.7,-76.7801 20.2,-24.54 56.8,-29.92 86.7,-30 m -3263,90 c -25,3.69 -45.3,25.8701 -72,16.4501 -30.2,-10.6201 -31.8,-58.0201 -12.6,-79.3601 20.1,-22.32 56.2,-27.01 84.6,-27.09 m -4584,90 c -24.04,4.98 -45.19,24.8301 -71,16.7801 -28.87,-9.0001 -33.89,-55.4101 -15.79,-76.7801 20.72,-24.45 56.44,-29.92 86.79,-30 m -6278,13 c 0.64,-14.81 4.62,-29.59 16.01,-39.81 17.56,-15.76 56.69,-14.45 73.9,1.14 8.11,7.34 23.87,36.11 9.09,43.64 -4.62,2.35 -11.96,1.03 -17,1.03 l -37,0 c -13.97,0 -34.4,4.25 -45,-6 -3.88,8.06 -2,19.2 -2,28 0,16.64 1.49,35.99 11.48,50 20.88,29.2801 67.08,25.3801 90.52,2 m 18395,-142 c -6.2,11.64 -2,33.88 -2,47 l 0,111.0001 m -2697,-158.0001 c -6.2,11.64 -2,33.88 -2,47 l 0,111.0001 m -3800,-158.0001 c -6.1,11.44 -2,33.11 -2,46 l 0,112.0001 m -12530,-158.0001 c -6.1,11.43 -2,33.11 -2,46 l 0,112.0001 m -651,-158.0001 c -6.102,11.43 -2,33.11 -2,46 l 0,112.0001 m 15659,-159.0001 -1,54 0,105.0001 m 4492,-161.0001 0,161.0001 m -1407,-161.0001 0,161.0001 m -3641,-161.0001 0,161.0001 m -1302,-161.0001 0,161.0001 m -126,-161.0001 0,161.0001 m -2101,-161.0001 0,161.0001 m -420,-161.0001 0,161.0001 m -1435,-161.0001 0,161.0001 m -5629,-161.0001 0,161.0001 m 7700,-164.0001 0,164.0001 m -3706,-167.0001 0,167.0001 m 5023,-181.00006 0,180.00006 m -2716,-180.00006 0,16.99996 m -1315,-16.99996 0,20.99996 m -181,-20.99996 0,116.99996 c 0,14.2 -2.79,37.71 5.56,50 17.69,26.0101 50.4,9.8701 71.44,0.05 5.01,-2.34 17.49,-3.05 20.11,-8.35 1.98,-4.04 0.89,-10.33 0.89,-14.7 l 0,-31 0,-112.99996 m -1034,0 0,16.99996 m -1124,-16.99996 0,20.99996 m -307,-20.99996 0,16.99996 m -1667,-16.99996 0,12.99996 m -951,-12.99996 0,118.99996 c 0,14.39 -3.03,37.95 6.39,50 17.91,22.8801 49.82,8.2701 69.61,-1.74 5.19,-2.62 17.39,-2.86 20.11,-8.54 1.96,-4.09 0.89,-10.3 0.89,-14.72 l 0,-31 0,-112.99996 m -1682,0 0,180.00006 m -2504,-180.00006 0,119.99996 c 0,14.15 -2.866,37.16 6.394,49 17.893,22.8601 49.8,8.2801 69.606,-1.74 5.193,-2.62 17.389,-2.86 20.106,-8.54 1.96,-4.09 0.894,-10.3 0.894,-14.72 l 0,-31 0,-112.99996 m 22016,133.99996 c -7.1,36.87 -46.5,58.7001 -80,37.8901 -14,-8.7401 -21.1,-22.7501 -26.3,-37.8901 -10.8,-31.4 -9.2,-82.1 10.1,-110 17.8,-25.73996 55.4,-34.96996 80.2,-12.83 10.6,9.5 13.2,20.12 18,32.83 m -185,-44.99996 0,181.00006 m -251,-164.0001 c 5.8,-2.2 12.2,-2.81 18,-5.2 17.3,-7.17 34.6,-17.69996 54,-8.39996 15.2,7.30996 21.4,22.34996 24.9,37.59996 6.4,27.94 5.9,60.83 1.2,89 -2.1,12.44 -5.2,25.99 -13.4,36 -11,13.3201 -28.1,17.9001 -44.7,14.4901 -5.7,-1.17 -13.4,-5.59 -19,-5.1 -7.9,0.69 -11.6,13.4 -17.1,13.4 -4.6,0 -5.7,-8.55 -6.9,-11.79 m -180,-177.00006 0,119.99996 c 0,14.36 -3.7,36.7 5.4,49 18,24.2201 50.1,9.3301 70.6,-0.9 5,-2.51 17.5,-3.02 20.1,-8.4 2,-4.04 0.9,-10.33 0.9,-14.7 l 0,-32 0,-112.99996 m -938,142.99996 c 5,13.34 9.7,25.53 23,32.8101 19.4,10.64 53.9,8.65 66.1,-11.8101 6,-10.1 5.4,-23.84 3.6,-35 -7.8,-50.23 -81.3,-25.38 -93.2,-73 -1.5,-6.14 -1.8,-12.7 -1.4,-19 3.6,-51.63996 85.5,-47.47996 93.9,0 m -166,-36.99996 0,181.00006 m -855,-180.58006 c 27.3,-3.62 45.9,12.33996 55.9,36.57996 12.1,29.47 11.8,70.94 1.8,101 -6.6,19.7 -19.7,38.5601 -41.7,41.7101 -28.7,4.11 -47.5,-12.2001 -58,-37.7101 -3.5,-8.58 -5.3,-16.93 -7,-26 -7.7,-39.89 -0.8,-108.96 49,-115.57996 m -122,-0.42 0,181.00006 m -1834,-19.0001 c -5.8,2.45 -12,2.94 -18,4.77 -16,4.91 -33.1,12.9501 -49,2.38 -12.8,-8.49 -18.1,-24.68 -20.1,-39.15 -4.2,-28.75 -5.6,-61.43 0.7,-90 3,-13.86 7.5,-28.1 20.4,-36.03996 20.3,-12.54 46.5,5.26996 67,8.03996 m -338,1 0,74 0,50 c 0,6.91 1.5,16.43 -1.6,22.86 -2.7,5.63 -14.1,5.49 -19.4,7.11 -20.8,6.3801 -42,13.7801 -57.8,-6.97 -9.5,-12.52 -11.6,-30.81 -12.2,-46 -1.1,-24.38 -2.9,-49.94 2.2,-74 2.8,-13.33 7.3,-28.21 19.8,-35.78996 19,-11.55 48.8,2.38996 68,7.78996 l 1,-10.99996 m -1237,141.99996 c 3.6,13.88 10.4,27.12 24,33.6001 29.7,14.18 73,0.44 69.8,-37.6001 -1.3,-16.16 -6.6,-29.34 -20.8,-38.45 -26.2,-16.88 -68.1,-8.45 -74.4,-48.55 -0.9,-5.64 -1.1,-11.33 -0.4,-17 5.6,-48.64996 87.9,-46.07996 92.8,2 m -528,-36.99996 0,181.00006 m -73,-46.0001 c -5,13.2 -8.8,25.08 -20,34.7 -22.9,19.5801 -59.3,11.7401 -76.3,-11.7 -20,-27.74 -21.4,-79.38 -10.6,-111 4.7,-13.75 11.3,-27.08 22.9,-36.33 23.2,-18.43996 56.5,-12.33996 74.8,9.33 5.7,6.81 7.4,15.83 10.2,24 m -686,99 c 4.5,13.34 9.5,26.16 23,33.0001 30.8,15.62 75.4,0.59 70.7,-39.0001 -1.2,-10.07 -2.9,-20.14 -10,-27.91 -23.2,-25.34 -73.6,-12.47 -84.1,-52.09 -1.7,-6.42 -1.8,-13.4 -1.6,-20 1.5,-33.96996 42.8,-45.78996 70,-32.17 13.2,6.63 19.6,18.75 24,32.17 m -944,-36.56996 c 27.1,-3.69 46.7,12.19996 56.4,36.56996 12.1,30.24 11.3,68 2.5,99 -6,20.89 -20.1,40.6401 -42.9,43.7201 -59.2,8 -68,-63.7201 -65.1,-106.7201 0.7,-10.61 1.8,-20.86 5.2,-31 7.5,-21.67 20.1,-38.33996 43.9,-41.56996 m -1049,-0.43 0,181.00006 m -178,-181.00006 0,119.99996 c 0,14.36 -3.7,36.7 5.4,49 18,24.2201 50.1,9.3301 70.6,-0.9 5,-2.51 17.5,-3.02 20.1,-8.4 2,-4.04 0.9,-10.33 0.9,-14.7 l 0,-31 0,-113.99996 m -577,0 0,181.00006 m -829,-180.58006 c 27,-3.59 46.1,12.26996 55.8,36.57996 11.9,29.86 11.6,69.5 2.1,100 -6.2,19.94 -19.7,39.6901 -41.9,42.7101 -28.8,3.92 -47.4,-12.0801 -58,-37.7101 -12.2,-29.47 -12.6,-69.81 -2.5,-100 7.3,-21.92 20.8,-38.41996 44.5,-41.57996 m -921,142.57996 c 6,44.3601 84.5,56.2801 92.7,8 1,-6.06 0.9,-11.93 0.2,-18 -6.6,-56.71 -93.2,-27.96 -95.9,-88 -0.4,-11.13 1.5,-23.44 9.2,-31.98 24.8,-27.48996 78.4,-11.83996 84.8,23.98 m -394,-36.99996 0,117.99996 c 0,14.24 -2.8,37.66 5.6,50 17.7,26.0101 50.4,9.8701 71.4,0.05 5,-2.34 17.5,-3.05 20.1,-8.35 2,-4.04 0.9,-10.33 0.9,-14.7 l 0,-31 0,-112.99996 m -239,-0.57 c 27.1,-3.69 46.7,12.19996 56.4,36.56996 12.1,30.24 11.3,68 2.5,99 -6,20.92 -20.1,40.6401 -42.9,43.7201 -59.2,8 -68,-63.7201 -65.1,-106.7201 0.7,-10.61 1.8,-20.86 5.2,-31 7.5,-21.67 20.1,-38.33996 43.9,-41.56996 m -119,134.56996 c -4.2,14.84 -10.2,27.7 -23,37.24 -22,16.3301 -55.3,8.3101 -71.5,-12.24 -21.6,-27.53 -21.7,-77.63 -13,-110 5,-18.75 16.5,-37.44 34.5,-46.01996 33.2,-15.77 67.5,7.77996 74,41.01996 m -2133,-44.56996 c 27.16,-3.7 46.66,12.09996 56.45,36.56996 11.89,29.73 11.47,67.49 2.69,98 -6.14,21.35 -19.64,41.5401 -43.14,44.7201 -28,3.78 -46.45,-11.9401 -57,-36.7201 -12.71,-29.85 -12.74,-71.35 -2.52,-102 7.09,-21.25 20.58,-37.44996 43.52,-40.56996 m -1735,-0.43 0,181.00006 m -352,-38.0001 c 2.49,12.84 9.3,25.43 21,32.1201 28.95,16.56 73.75,3.7 72.74,-34.1201 -0.47,-17.51 -7.2,-32.54 -22.74,-41.54 -27.11,-15.68 -64.99,-8.4 -72.8,-47.46 -1.06,-5.31 -1.58,-10.6 -0.91,-16 6.1,-49.70996 86.49,-47.19996 93.71,1 m -163,98 c -4.08,14.46 -10.59,28.01 -23,37.24 -22.57,16.7901 -56.19,7.8001 -72.47,-13.24 -20.9,-27.01 -20.35,-75.39 -12.63,-107 4.83,-19.77 16.17,-39.01 35.1,-48.01996 33.83,-16.08 67.53,8.62996 74,42.01996 m -185,-45.99996 0,181.00006 m -252,-164.0001 c 23.38,-5.36 48.14,-25.13996 73,-13.92996 15.8,7.12996 22.14,23.28996 25.58,38.92996 6.13,27.94 5.55,60.86 0.83,89 -2.21,13.19 -5.97,26.59 -14.87,36.96 -12.53,14.5901 -43.73,19.9601 -59.33,6.5401 -3.39,-2.9201 -5,-7.7101 -7.21,-11.5001 m -200,-162.99996 0,119.99996 c 0,14.46 -2.88,37.9 6.53,49.99 17.88,22.9501 49.69,8.2101 69.47,-1.73 5.52,-2.77 17.07,-2.73 20.35,-8.54 6.05,-10.72 1.65,-33.61 1.65,-45.72 l 0,-113.99996 m -278,168.99996 0,-112 0,-29 c 0,-3.28 -0.98,-8.65 1.03,-11.49 3.77,-5.31 18.99,-6.46 24.97,-9.43 6.59,-3.26996 12.71,-5.18996 20,-6.20996 59.68,-8.32 59.72,69.00996 57.96,109.12996 -1.4,31.94 -14.11,74.6301 -53.96,71.8201 -12.88,-0.91 -23.65,-6.4 -36,-9.03 -3.07,-0.6501 -9.51,-3.6201 -12.4,-1.6701 -3.63,2.4501 -1.6,14.9601 -1.6,18.8801 l 0,55 m -281,-102.0001 c 2.76,13.31 9.75,25.92 22,32.6501 29.31,16.09 73.74,2.28 71.79,-35.6501 -0.92,-17.82 -8.2,-33.4 -24.79,-41.62 -26.49,-13.13 -65.84,-9.29 -70.71,-47.38 -0.79,-6.12 -0.83,-11.89 -0.01,-18 6.4,-47.50996 87.96,-42.50996 92.72,4 m -932,106 c 5.96,46.1201 85.73,55.3201 92.83,6 0.86,-5.96 0.86,-12.07 -0.34,-18 -10.88,-53.55 -92.87,-27.14 -95.45,-86 -0.49,-11.15 1.44,-23.42 9.15,-31.99 24.71,-27.48996 78.44,-11.82996 84.81,23.99 m -559,-36.99996 0,119.99996 c 0,15.06 -3.56,37.28 6.39,50 18.04,23.0401 49.72,8.0401 69.61,-1.9 5.23,-2.62 17.34,-2.6 20.11,-8.38 1.96,-4.09 0.89,-10.3 0.89,-14.72 l 0,-31 0,-112.99996 m -356,-1 0,181.00006 m -82,-19.0001 c -5.81,2.5 -12.01,2.93 -18,4.77 -15.95,4.9 -33.06,12.9601 -49,2.38 -11.88,-7.89 -17.32,-22.68 -19.59,-36.15 -4.99,-29.7 -6.32,-64.46 0.47,-94 3.03,-13.17 7.33,-26.22 19.12,-34.31 20.23,-13.88996 47.26,4.52 68,7.31 m -224,-11.56996 c 27.04,-3.69 46.44,12.23996 56.2,36.56996 12.03,29.97 11.74,68.33 2.39,99 -6.32,20.71 -19.67,40.6201 -42.59,43.7201 -59.88,8.09 -71,-67.7301 -65.28,-111.7201 1.15,-8.88 2.35,-17.49 5.2,-26 7.33,-21.84 20.24,-38.32996 44.08,-41.56996 m -260,-0.01 c 27.06,-3.59 46.26,12.22996 56,36.57996 12.1,30.26 11.73,69.1 2.02,100 -6.28,20.02 -19.75,39.7101 -42.02,42.7201 -28.32,3.82 -46.63,-11.4901 -57.42,-36.7201 -12.72,-29.73 -13.1,-70.42 -2.91,-101 7.29,-21.89 20.62,-38.41996 44.33,-41.57996 m -196,134.57996 c -3.19,16.45 -12.86,32.56 -28,40.6801 -27.18,14.57 -62.68,-1.23 -73.79,-28.6801 -14.21,-35.09 -16.25,-86.73 4.25,-120 16.55,-26.85996 55.23,-37.39996 80.54,-15.7 11.36,9.74 13.54,20.77 19,33.7 m -247,-44.57996 c 26.73,-3.55 45.42,11.71996 55.42,35.57996 12.55,29.91 12,70.31 2.46,101 -6.24,20.11 -19.61,39.5201 -41.88,42.7101 -28.68,4.12 -47.49,-12.2001 -58.01,-37.7101 -12.33,-29.88 -12.14,-69.39 -2.33,-100 7.04,-21.99 20.67,-38.42996 44.34,-41.57996 m -214,142.57996 c 5.74,44.4401 84.57,56.2001 92.68,8 1.01,-6.04 1.02,-11.95 0.15,-18 -8.1,-56.2 -93.18,-28.3 -95.79,-88 -0.49,-11.13 1.43,-23.44 9.15,-31.98 24.79,-27.49996 78.45,-11.82996 84.81,23.98 m -867,-36.99996 0,119.99996 c 0,14.36 -3.71,36.7 5.43,49 17.99,24.2201 50.1,9.3301 70.57,-0.9 5.02,-2.51 17.46,-3.03 20.11,-8.4 1.98,-4.04 0.89,-10.33 0.89,-14.7 l 0,-31 0,-113.99996 m 20023,-1 c 0,3.4 -1.6,12.72996 1.6,14.87996 6.4,4.23 24.6,-6.86 30.4,-9.38 17.3,-7.46996 38.3,-5.84996 52,7.51 13.6,13.32 17.1,29.75 19.3,47.99 3,25.11 3.9,53.41 -2.9,78 -3.9,14.35 -9.7,29.7 -23.4,37.6401 -26.2,15.22 -49.8,-3.5001 -76,-5.6401 l -1,-90 1,-65 m -370,74 c 0,-27.54 1.5,-57.97 23,-77.91 21.6,-20.02996 58.8,-14.85996 76.3,7.91 8.4,10.95 11.3,26.56 12.5,40 0.7,6.67 4.2,23.24 -0.4,28.68 -3.8,4.46 -15.2,2.32 -20.4,2.32 l -58,0 -24,0 c -3.1,0.01 -7.6,-0.62 -8.7,3.15 -2.3,7.92 0.8,21.91 2.6,29.85 3.5,15.52 8.4,31.39 20.2,42.83 23.2,22.4801 63.1,21.1001 82.9,-4.83 m -248,-161.99996 75,0 m -446,0 76,0 m -179,0 1,20.99996 c 20.8,-9.73 41.4,-20.97996 65,-20.99996 m -242,34.99996 c 5.5,-36.54996 64.4,-49.19996 86.4,-19.96 6.3,8.47 6.7,18.92 7.9,28.96 3.1,26.73 0.7,55.07 0.7,82 0,8.94 3.6,28.06 -1.2,35.72 -3.4,5.41 -14.3,5.38 -19.8,7.67 -18.6,7.7901 -33.9,18.4901 -55,10.1501 -28.6,-11.3301 -28.1,-58.5301 -9.8,-78.5301 20.4,-22.34 56.2,-26.99 84.8,-27.01 m -382,-73.99996 1,24.99996 c 5.6,-1.88 12.9,-3.46 17.7,-6.84 5.1,-3.6 8.7,-8.7 14.3,-11.77 13.6,-7.40996 33.4,-9.08996 48,-3.39996 19.3,7.53996 18,29.87996 18,47.00996 l 0,133.0001 m -509,-183.00006 76,0 m -229,34.99996 c 4.4,-29.69996 36.3,-39.29996 62,-33.49996 9.9,2.24 20.9,7.01996 26,16.49996 8.8,16.49 5.8,37.99 5.8,56 l 0.2,108.0001 m -355,-92.0001 c 0,-26.06 0,-56.34 20,-75.96 22.6,-22.09996 60.7,-17.63996 79.5,6.96 7.6,10.07 10.2,24.74 11.3,37 0.7,7.17 4.6,24.78 -0.4,30.68 -3.7,4.34 -14.3,2.32 -19.4,2.32 l -57,0 -25,0 c -3.1,0.01 -7.6,-0.62 -8.7,3.15 -1.6,5.57 0.4,12.22 0.7,17.85 1,23.38 10.5,49.27 31,62.4501 22.7,14.64 57.6,10.14 73,-12.4501 m -224,-161.99996 1,20.99996 c 21.2,-9.38 41.2,-20.97996 65,-20.99996 m -352,34.99996 c 4.4,-29.51 36.3,-39.44996 62,-33.64996 9.8,2.22 21,7.28996 26,16.64996 8.9,16.55 5.8,37.93 5.8,56 l 0.2,108.0001 m -427,-182.00006 75,0 m -241,89.99996 c 0,-22.76 0.4,-49.9 14.6,-69 20.6,-27.72996 65,-28.73996 85.5,0 11.2,15.71 12.1,38.46 12.9,57 0.1,3.92 0.8,9.63 -3.1,11.97 -5.6,3.31 -17.5,1.03 -23.9,1.03 l -60,0 c -4.9,0 -22.9,-2.68 -25.4,2.32 -3.9,7.89 1.3,25.46 3,33.68 3.7,18.55 12.4,36.23 28.4,47.2001 23.7,16.25 56.8,8.87 74,-12.2001 m -397,-72 c 0,-23.16 0.2,-49.33 14.3,-69 20.6,-28.76996 66.1,-28.05996 86.1,1 11,15.96 11.7,39.34 12.5,58 0.5,13.06 -11.6,11 -20.9,11 l -67,0 c -4.8,0 -22,-2.6 -24.4,2.32 -3.9,7.93 0.9,25.41 2.6,33.68 3.2,15.59 9.8,30.97 21.8,41.83 24.3,21.9201 60.6,16.5201 81,-6.83 m -181,-161.99996 0,134.99996 c 0,22.25 3.2,49.1701 -6,70.0001 -13.7,30.72 -55,31.85 -83,23 m -172,-193.0001 c 3.3,-10.14 8.1,-20.63 17,-27.06 19.1,-13.80996 61.7,-11.76996 72.6,12.06 7.7,16.97 5,36.89 5.3,55 0.4,35.66 0.1,71.34 0.1,107.0001 m -439,-182.00006 1,24.99996 c 27.2,-10.49 46.9,-33.62996 79,-22.31996 19.6,6.90996 19,29.27996 19,46.31996 l 0,134.0001 m -275,-148.0001 c 5.5,-36.49996 64.5,-49.10996 86.4,-19.96 6.4,8.54 6.7,18.88 7.9,28.96 3.1,26.73 0.7,55.07 0.7,82 0,8.94 3.6,28.06 -1.2,35.72 -3.4,5.41 -14.3,5.38 -19.8,7.67 -18.4,7.7301 -34.1,18.6801 -55,10.1301 -28.3,-11.5701 -28.2,-58.4301 -9.8,-78.5101 20.3,-22.28 56.3,-26.99 84.8,-27.01 m -465,16 c 0,-25.92 -0.1,-56.54 20,-75.96 22.7,-21.94996 60.6,-17.76996 79.5,6.96 7.6,10.02 10.2,24.77 11.3,37 0.7,7.16 4.6,24.78 -0.4,30.68 -3.7,4.34 -14.3,2.32 -19.4,2.32 l -57,0 -25,0 c -3.1,0.01 -7.6,-0.62 -8.7,3.15 -1.6,5.52 0.2,12.28 0.6,17.85 1.7,23.61 10.2,49 31.1,62.4501 22.7,14.63 57.5,10.15 73,-12.4501 m -713,-72 c 0,-26.56 0.1,-57.3 21,-76.91 22.6,-21.21996 60.1,-16.17996 78.5,7.91 7.6,10.02 10.2,24.77 11.3,37 0.7,7.16 4.6,24.78 -0.4,30.68 -3.8,4.46 -15.2,2.32 -20.4,2.32 l -56,0 -25,0 c -3.1,0.01 -7.6,-0.62 -8.7,3.15 -1.6,5.52 0.2,12.27 0.6,17.85 1.7,23.55 10.3,49.02 31.1,62.4501 22.7,14.63 57.5,10.15 73,-12.4501 m -279,-161.99996 c 0,4.15 -2.3,20.53996 1.6,22.75996 7.7,4.32 23.2,-10.99 28.4,-14.54 16.9,-11.52996 51.7,-13.77996 63.9,5.78 8.3,13.38 5.1,36.88 5.1,52 l 0,116.0001 m -532,-148.0001 c 6,-38.48996 71,-47.90996 88.7,-14 8.2,15.65 5.1,36.92 5.1,54 l 0.2,108.0001 m -217,-182.00006 1,20.99996 c 21.1,-9.37 41.2,-20.97996 65,-20.99996 m -531,89.99996 c 0,-25.53 0.3,-56.69 20.1,-75.83 22.9,-22.12996 62,-18.18996 80.3,7.83 7.7,11.1 10.6,27.71 11.5,41 0.5,6.69 3.4,20.3 -1.5,25.68 -4.1,4.55 -15.8,2.32 -21.4,2.32 l -59,0 c -5.4,0 -26.8,-2.98 -29.4,2.32 -3.8,7.76 0.8,24.6 2.4,32.68 3.2,15.96 9.6,31.7 22,42.83 24.3,21.8301 60.5,16.5901 81,-6.83 m -474,-72 c 0,-27.84 1.8,-59.05 24,-78.83 21.6,-19.27996 58.3,-13.33996 75.3,8.83 8.6,11.12 11.2,26.38 12.5,40 0.7,6.67 4.2,23.24 -0.4,28.68 -3.8,4.46 -15.2,2.32 -20.4,2.32 l -58,0 -24,0 c -3.1,0.01 -7.6,-0.62 -8.7,3.15 -2.4,8.21 0.9,22.64 2.8,30.85 3.6,15.72 8.8,31.35 21,42.71 23.3,21.7601 62.5,19.7201 81.9,-5.71 m -181,-161.99996 0,78.99996 c 0,25.59 3.9,54.75 -0.1,79.98 -1.2,7.21 -13.2,7.25 -18.9,8.69 -17.6,4.46 -35.1,13.9301 -52,0.8 -11,-8.55 -15.5,-23.29 -17.6,-36.47 -4.6,-28.76 -6.1,-62.46 0.5,-91 3.1,-13.77 8,-30.43 22.1,-36.93996 21.5,-9.89 43.9,6.09996 65,8.93996 m -393,-12.99996 1,20.99996 c 21.2,-9.39 41.1,-20.97996 65,-20.99996 m -192,0 1,20.99996 c 21.2,-9.39 41.2,-20.97996 65,-20.99996 m -254,89.99996 c 0,-22.67 0.2,-48.58 13.6,-68 20.1,-28.96996 65.5,-29.86996 86.1,-1 11.6,16.23 12.5,39.82 13.3,59 0.5,13.28 -11.1,11 -21,11 l -66,0 c -4.9,0 -22.9,-2.68 -25.4,2.32 -3.9,7.94 0.9,25.41 2.6,33.68 3.2,15.52 9.9,31.03 21.8,41.83 24.3,21.9401 60.6,16.5201 81,-6.83 m -248,-161.99996 75,0 m -234,0 1,24.99996 c 27.2,-10.48 46.9,-33.62996 79,-22.31996 19.5,6.87996 19,29.31996 19,46.31996 l 0,134.0001 m -625,-170.0001 0,114 0,30 c 0,3.64 1.1,9.49 -1,12.69 -1.8,2.74 -6.1,2.93 -9,3.51 -8.6,1.7201 -16.5,4.7201 -25,6.5901 -7.3,1.61 -15.5,3.66 -23,3.04 -48,-4 -47.4,-60.0601 -47,-96.8301 0.3,-26.28 1.3,-68.25 29,-81.59996 14.5,-6.97 33.5,-3.49 48,1.42996 5.2,1.75 21.4,8.12 26.4,4.97 2.7,-1.73 1.6,-8.05996 1.6,-10.79996 m -343,0 69,0 m -270,0 75,0 m -229,34.99996 c 3.3,-10.09 8.1,-20.81 17,-27.21 19.1,-13.77996 61.7,-11.45996 72.6,12.21 7.5,16.58 5.2,36.27 5.2,54 l 0.2,108.0001 m -356,-168.0001 c 18.9,-5.06 36.6,-16.59996 57,-13.69996 7.5,1.07 15,3.5 21,8.22996 3.5,2.8 6.9,9.42 12,8.85 9.1,-1.01 16.1,-7.71 24,-11.35 17.8,-8.17996 48.4,-11.04996 61.5,6.97 9.5,13.15 6.5,35.7 6.5,51 l 0,118.0001 m -183,-182.00006 0,183.00006 m -126,-183.00006 1,20.99996 c 21.2,-9.39 41.1,-20.97996 65,-20.99996 m -385,0 70,0 m -171,0 1,20.99996 c 21.2,-9.39 41.1,-20.97996 65,-20.99996 m -254,89.99996 c 0,-22.67 0.2,-48.58 13.6,-68 20.1,-28.96996 65.5,-29.86996 86.1,-1 11.5,16.11 12.6,39.93 13.3,59 0.4,13.1 -11.5,11 -21,11 l -67,0 c -4.8,0 -22,-2.6 -24.4,2.32 -3.9,7.94 0.9,25.41 2.6,33.68 3.2,15.59 9.8,30.98 21.8,41.83 24.3,21.9401 60.6,16.5201 81,-6.83 m -279,-161.99996 c 0,3.42 -1.6,12.69996 1.6,14.87996 6.4,4.32 24.5,-6.85 30.4,-9.38 16.5,-7.09996 37.9,-6.30996 51,6.51 21.4,20.92 22,51.77 22,79.99 0,15.03 -0.2,30.34 -3.9,45 -3.7,15.08 -9.7,31.62 -24.1,39.6501 -26.6,14.77 -49.5,-3.4901 -76,-5.6501 l -1,-90 1,-65 m -403,166.0001 0,-117.0001 0,-31 c 0,-3.66 -1,-9.39 1,-12.61 3.1,-4.82 12.1,-5.16 17,-7.15 16.5,-6.72 28.4,-14.18996 47,-14.23996 m -737,0 1,20.99996 c 21.2,-9.39 41.2,-20.97996 65,-20.99996 m -242,34.99996 c 2.4,-10.15 8.4,-21.07 17,-27.21 18.2,-13.01996 56.8,-11.58996 70,8.22 8,11.9 8,28.21 8,41.99 l 0,68 c 0,8.94 3.6,28.06 -1.2,35.72 -3.4,5.41 -14.3,5.38 -19.8,7.67 -18.4,7.7401 -34,18.7101 -55,10.1301 -29.15,-11.9101 -27.7,-59.4601 -8.8,-79.4801 20.2,-21.48 55.9,-25.96 83.8,-26.04 m -270,-73.99996 c 0,3.4 -1.62,12.72996 1.6,14.87996 3.15,2.09 11.08,-1.79 14.4,-2.66 13.5,-3.53 24.18,-11.96996 39,-11.12996 26.81,1.52 41.96,23.12996 46.54,47.90996 1.75,9.48 2.46,19.38 2.46,29 0,34.3 3.76,96.2501 -42,103.8101 -5.47,0.9 -10.51,1.15 -16,0.47 -7.47,-0.91 -14.05,-2.51 -21,-5.5 -6.62,-2.84 -16.99,-1.97 -22.57,-6.6301 -6.27,-5.25 -2.43,-28.43 -2.43,-36.15 l 0,-83 c 0,-10.27 -2.89,-25.83 2,-35 m -293,166.0001 0,-110.0001 0,-32 c 0,-4.06 -1.07,-10 0.6,-13.78 2.49,-5.59 13.45,-5.98 18.23,-9.02 5.03,-3.21 8.85,-7.92 14.17,-10.81 16.23,-8.82996 45.66,-11.10996 58.52,4.63 10.04,12.27 7.48,36.01 7.48,50.98 l 0,120.0001 m -832,-92.0001 c 0,-22.27 0.24,-49.08 13.79,-68 20.39,-28.47996 65.42,-30.26996 86.27,-1 11.16,15.67 11.59,37.61 12.85,56 0.28,4.1 1.08,10.37 -3.06,12.82 -5.73,3.4 -17.35,1.18 -23.85,1.18 l -60,0 c -4.92,0 -22.94,-2.68 -25.4,2.32 -3.72,7.57 0.99,24.76 2.6,32.68 3.1,15.28 9.25,30.91 20.84,41.83 23.69,22.3001 61.95,18.7401 81.96,-5.83 m -274,-143 c 4.35,-3.32 9.31,-3.93 14,-6.53 19.34,-10.71996 62.07,-24.68996 74.37,4.53 7.24,17.21 4.63,38.77 4.63,57 l 0,108.0001 m -184,-182.00006 1,14.99996 c 5.44,-2.87 11.27,-3.75 17,-5.8 22.87,-8.17996 57.41,-18.40996 71.97,10.8 2.1,4.21 1.03,10.43 1.03,15 l 0,32 0,116.0001 m -216,-1 0,-117.0001 0,-31 c 0,-3.66 -1.05,-9.39 1.03,-12.61 3.11,-4.82 12.06,-5.16 16.97,-7.15 16.47,-6.7 28.4,-14.18996 47,-14.23996 m -385,0 70,0 m -331,34.99996 c 3.16,-9.68 7.64,-19.92 16.01,-26.24 19.3,-14.54996 62.21,-13.17996 73.55,11.24 7.65,16.48 5.29,36.32 5.29,54 l 0.15,108.0001 m -638,0 0,-110.0001 0,-32 c 0,-4.06 -1.08,-10 0.6,-13.78 2.49,-5.59 13.46,-5.98 18.23,-9.02 5.03,-3.21 8.85,-7.92 14.17,-10.81 16.13,-8.77996 45.73,-11.14996 58.52,4.63 9.75,12.02 7.48,35.35 7.48,49.98 l 0,121.0001 m -287,-92.0001 c 0,-23.38 -0.52,-50.47 14.53,-70 20.78,-26.97996 64.62,-27.14996 84.68,1 10.78,15.13 11.48,35.22 12.7,53 0.29,4.29 1.46,12.29 -2.23,15.4 -4.63,3.9 -16.93,1.6 -22.68,1.6 l -60,0 c -5.03,0 -23.9,-2.76 -26.4,2.32 -3.82,7.77 0.33,24.57 1.95,32.68 3.7,18.49 11.87,35.78 27.45,47.24 23.13,17.0001 58.16,10.8601 75,-11.24 m -224,20.0001 0,-117.0001 0,-31 c 0,-3.66 -1.05,-9.39 1.03,-12.61 3.11,-4.82 12.06,-5.16 16.97,-7.15 16.88,-6.86 28.96,-14.22996 48,-14.23996 m -246,0 c 0,3.4 -1.62,12.72996 1.6,14.87996 5.92,3.93 22.99,-6.12 28.4,-8.57 14.76,-6.68996 35.69,-8.05996 49,2.36 32.65,25.57 28.56,82.46 23.71,119.33 -3.66,27.81 -20.07,56.2901 -51.71,54.9001 -9.48,-0.42 -18.35,-3.07 -27,-6.69 -5.96,-2.5 -19.03,-1.53 -22.68,-7.4901 -5.43,-8.86 -1.32,-30.45 -1.32,-40.72 l 0,-72 c 0,-13.1 -1.4,-27.09 1,-40 m -1953,74 c 0,-23.55 -0.58,-51.72 15.33,-71 21.34,-25.87996 63.94,-25.84996 83.88,2 10.58,14.78 11.51,34.56 12.7,52 0.31,4.46 1.59,13.18 -2.23,16.4 -4.63,3.9 -16.93,1.6 -22.68,1.6 l -60,0 c -5.03,0 -23.9,-2.76 -26.4,2.32 -3.94,8.02 0.42,25.36 2.19,33.68 4.03,18.97 12.64,36.41 29.21,47.5301 23.14,15.52 56.65,8.92 73,-12.5301 m -411,-161.99996 1,20.99996 c 21.14,-9.37 41.21,-20.97996 65,-20.99996 m -712,89.99996 c 0,-23.44 0.27,-50.39 15.04,-70 20.97,-27.82996 65.62,-26.64996 85.34,2 10.85,15.78 12.02,39.49 12.58,58 0.39,13.07 -11.46,11 -20.96,11 l -67,0 c -4.81,0 -21.98,-2.6 -24.4,2.32 -3.9,7.93 0.92,25.41 2.6,33.68 3.17,15.59 9.79,30.98 21.8,41.83 24.27,21.9201 60.6,16.5201 81,-6.83 m -362,-149 0,114 0,30 c 0,3.64 1.07,9.49 -1.03,12.69 -1.8,2.74 -6.06,2.93 -8.97,3.51 -7.92,1.5901 -15.22,4.1801 -23,6.1301 -7.64,1.93 -16.06,3.91 -24,3.57 -47.16,-2.08 -48.42,-58.2101 -48,-93.9001 0.32,-26.74 0.81,-69.43 28,-84.07996 15.51,-8.37 35.29,-3.32 51,1.48996 4.93,1.51 19.72,7.36 24.4,4.39 2.72,-1.73 1.6,-8.05996 1.6,-10.79996 m -256,0 0,133.99996 c 0,22.59 3.39,49.7801 -5.88,71.0001 -13.47,30.85 -55.24,31.82 -83.12,23 m -1346,-138.0001 c 0,-22.67 0.19,-48.58 13.62,-68 20.04,-28.96996 65.46,-29.86996 86.08,-1 11.59,16.23 12.46,39.82 13.26,59 0.55,13.28 -11.05,11 -20.96,11 l -66,0 c -4.92,0 -22.94,-2.68 -25.4,2.32 -3.75,7.63 0.75,24.71 2.4,32.68 3.38,16.35 10.05,32.56 23,43.7 23.83,20.4901 60.7,16.0001 80,-7.7 m -248,-161.99996 75,0 m -497,12.99996 0,114 0,30 c 0,3.64 1.07,9.49 -1.03,12.69 -1.8,2.74 -6.06,2.93 -8.97,3.51 -8.57,1.7201 -16.55,4.7201 -25,6.5901 -7.3,1.61 -15.47,3.66 -23,3.04 -47.96,-4 -47.43,-60.0601 -47,-96.8301 0.32,-26.28 1.32,-68.25 29,-81.59996 14.46,-6.97 33.49,-3.49 48,1.42996 5.17,1.75 21.42,8.12 26.4,4.97 2.72,-1.73 1.6,-8.05996 1.6,-10.79996 m -279,0 1,24.99996 c 5.63,-1.91 12.9,-3.52 17.83,-6.84 5.71,-3.85 9.86,-9.48 16.17,-12.64 13.08,-6.55996 31.16,-7.68996 45,-2.90996 20.14,6.95996 19,28.89996 19,46.38996 l 0,134.0001 m -287,-93.0001 c 0,-28.03 1.638,-58.89 24,-78.83 21.615,-19.25996 58.25,-13.34996 75.32,8.83 8.42,10.95 11.23,26.55 12.51,40 0.64,6.67 4.15,23.24 -0.43,28.68 -3.76,4.46 -15.15,2.32 -20.4,2.32 l -58,0 -24,0 c -3.126,0.01 -7.572,-0.62 -8.682,3.15 -2.336,7.92 0.764,21.91 2.562,29.85 3.641,16.06 8.761,32.08 21.209,43.71 23.281,21.7501 62.521,19.7301 81.911,-5.71 m -397,-72 c 0,-22.67 0.188,-48.58 13.623,-68 20.037,-28.96996 65.455,-29.86996 86.076,-1 11.592,16.23 12.461,39.82 13.262,59 0.554,13.28 -11.05,11 -20.961,11 l -66,0 c -4.92,0 -22.938,-2.68 -25.397,2.32 -3.905,7.93 0.916,25.41 2.596,33.68 3.155,15.52 9.856,31.03 21.805,41.83 24.293,21.9401 60.596,16.5201 80.996,-6.83 m -280,-161.99996 1,24.99996 c 5.603,-1.9 12.949,-3.49 17.83,-6.84 5.446,-3.74 9.088,-9.05 15.17,-12.18 13.446,-6.90996 31.66,-8.31996 46,-3.36996 19.895,6.86996 19,29.09996 19,46.38996 l 0,134.0001 m 8719,-240.00006 c 0.01,9.46 6.64,11.85 8.68,20 5.19,20.69 -1.98,53.91996 -20.68,64.99996 m -9063,-84.99996 c 0,10.09 7.514,12.35 9.682,21 1.444,5.76 -0.197,12.22 -0.592,18 -1.223,17.83 -3.762,36.75996 -21.09,45.99996 m 20545,-92.99996 0,175.99996 c 0,16.14 -1.4,32.99 0.7,49 0.7,5.6 0.8,12.36 4.7,16.8701 9.2,10.61 35.1,6.13 47.6,6.13 m -1030,-248.00006 0,175.99996 c 0,16.14 -1.4,32.99 0.7,49 0.7,5.6 0.8,12.36 4.7,16.8701 9.2,10.61 35.1,6.13 47.6,6.13 m 1294,-249.00006 0,175.99996 c 0,15.85 -1.2,32.27 0.7,48 0.8,6.2 0.8,13.65 5,18.7801 8.7,10.72 35.2,6.22 47.3,6.22 m -2553,-249.00006 0,176.99996 c 0,15.31 -0.7,30.78 0.8,46 0.7,6.73 0.6,14.56 5.5,19.8701 9.7,10.52 34.8,6.13 47.7,6.13 m -4834,-249.00006 0,176.99996 c 0,15.82 -1.3,32.31 0.7,48 0.8,5.9 0.8,13.05 4.8,17.8701 8.9,10.65 35.2,6.13 47.5,6.13 m -1282,-249.00006 0,175.99996 c 0,15.96 -0.8,32.12 0.8,48 0.7,6.22 0.7,13.64 4.9,18.7801 8.7,10.72 35.2,6.22 47.3,6.22 m -10814,-249.00006 0,176.99996 c 0,15.82 -1.32,32.31 0.72,48 0.76,5.9 0.77,13.05 4.78,17.8701 8.87,10.65 35.2,6.13 47.5,6.13 m 20321,-261.00006 0,20 m -77,-20 0,196.99996 1,40 4.6,18.7801 13.4,5.22 m -195,-261.00006 0,172.99996 0,42 -2.4,11 8.4,10 4,-4 -10,-10 m -1096,-221.99996 0,20 m -977,-20 0,20 m -376,-20 0,195.99996 c 0,13.65 -0.3,27.35 0,41 0.2,6.28 1,14.8501 5.6,19.5801 3.3,3.33 8.2,3.15 12.4,4.42 m -684,-261.00006 0,195.99996 c 0,13.65 -0.3,27.35 0,41 0.2,6.28 1,14.8501 5.6,19.5801 3.3,3.33 8.2,3.15 12.4,4.42 m -1664,-261.00006 0,196.99996 0.8,42 4.6,16.7801 13.6,5.22 m -387,-261.00006 0,196.99996 c 0,13.41 0.2,26.65 1,40 0.3,5.98 0.4,14.02 4.6,18.7801 3.4,3.87 8.7,4.07 13.4,5.22 m -808,-261.00006 0,19 m -1013,-19 0,195.99996 0.2,44 5.2,16.5801 12.6,4.42 m -1478,-261.00006 0,19 m -186,-19 0,20 m -658,-20 0,19 m -4960,-19 0,196.99996 c 0,13.41 0.22,26.65 0.96,40 0.34,5.98 0.45,14.02 4.61,18.7801 3.39,3.87 8.76,4.07 13.43,5.22 m -1163,-261.00006 0,195.99996 c 0,13.07 0.37,25.99 0.96,39 0.29,6.46 0.11,15.57 4.61,20.7801 3.45,3.98 8.78,3.81 13.43,5.22 m -95,-261.00006 0,19 m -608,-19 0,19 m -76,-19 0,195.99996 c 0,13.65 -0.32,27.35 0.01,41 0.16,6.28 0.99,14.8501 5.6,19.5801 3.25,3.33 8.22,3.15 12.39,4.42 m -195,-261.00006 0,153.99996 0,45 0.6,21 16.4,23 -1,1 -1,1 -1,1 m -912,-245.99996 0,196.99996 0.91,40 4.52,18.7801 13.57,5.22 m -1331,-261.00006 0,19 m -427,-19 0,196.99996 0.83,41 4.6,17.7801 13.57,5.22 m -279,-261.00006 0,19 m 10017,241.00006 0,-184.00006 c 0,-17.35 -1.8,-35.8 0.6,-53 0.7,-5.48 0.7,-12.25 4.1,-16.89 7.7,-10.36 29.1,-7.11 40.3,-7.11 m -1107,262.00006 0,-184.00006 c 0,-17.37 -1.7,-35.78 0.6,-53 0.8,-5.94 0.5,-12.84 4.3,-17.89 7.6,-10.36 28.9,-7.11 40.1,-7.11 m -2585,0 0,173.99996 0,50 c 0,6.46 1.72,15.9 -0.74,21.96 -2.77,6.7901 -13.3,6.38 -19.26,8.2601 -19.04,6.01 -39.23,12.73 -58,0.68 -29.67,-19.0601 -28.4,-66.0801 -27.04,-96.9001 0.49,-11.03 0.68,-22.21 3.16,-33 3.37,-14.65 7.66,-29.65 20.88,-38.53 25.04,-16.81996 53.95,2.36 79,7.53 m -1074,168.0001 0,-184.00006 c 0,-16.63 -0.75,-33.45 0.83,-50 0.68,-7.08 0.25,-14.93 4.82,-20.94 7.68,-10.11 28.25,-7.06 39.35,-7.06 m -595,0 0,172.99996 0,50 c 0,6.73 1.82,16.66 -0.74,22.96 -2.77,6.7901 -13.31,6.38 -19.26,8.2601 -19.04,6.01 -39.23,12.73 -58,0.68 -29.66,-19.0601 -28.4,-66.0801 -27.04,-96.9001 0.49,-11.03 0.68,-22.21 3.16,-33 3.37,-14.65 7.67,-29.65 20.88,-38.53 25.04,-16.82996 53.95,2.36 79,7.53 m -5907,-56.99996 c 8.51,-8.51 16.48,-17.49 25,-26 3.7,-3.7 7.59,-8.67 13,-9.76 7.02,-1.41 12.12,4.06 16.29,8.76 8.17,9.22 18.61,16.91 25.71,27 m -1619,-37 0,172.99996 0,50 c 0,6.82 1.746,16.55 -0.894,22.95 -2.806,6.7901 -14.04,6.6 -20.106,8.3501 -19.858,5.74 -39.801,12.88 -59,-0.35 -29.063,-20.0401 -28.135,-70.7901 -25.17,-101.9501 0.911,-9.58 0.743,-18.53 3.04,-28 3.428,-14.14 7.41,-28.32 20.13,-37.09 25.139,-17.34996 54.617,1.85 80,7.09 M 16846,1169 l 0,62 m -5794,-62 0,62 m -7009,-62 0,62 m -3806,-62 0,62 m 8556,-63 2,12 m -1519,-12 2,12 m -2165,-12 2,12 m 13604,-16 6,17 m -3399,-19 0,17 m 5713,-18 0,18 m -10773,-18 c 0,13.85 -0.3,30.48 -6.9,43 -15,28.36 -54.5,30.34 -82.1,21 m -2720,-64 0,18 m -3850,-18 0,18 m 12738,-19 2,19 m -9488,-19 2,19 m -494,-19 2,19 m -2147,-19 2,19 m -979,-35 c 0.11,9.48 8.62,11.77 10.68,20 1.49,5.95 0.06,13.02 -0.51,19 -1.75,18.42 -3.71,36.94 -22.17,46 m 7293,-87 0,31 m 290,-53 c 6.5,5.64 7.6,13.96 9.6,22 3.5,13.6 6.4,27.89 11.4,41 M 0,1118 l 1,0 m 14855,-16 c -23.1,19.01 -32,53.26 -47,79 m 5781,-95 c -1.9,24.34 -3.5,54.66 10.7,76 18.5,27.66 71.8,28.11 91.3,1 M 9495,1086 c -1.92,24.34 -3.54,54.66 10.69,76 18.49,27.71 71.84,28.07 91.31,1 m -7484,-77 c -2.97,23.51 -3.18,55.6 10.68,76 18.67,27.46 71.69,28.29 91.32,1 m 12641,-89 0.6,26.9 13.1,13.1 34.3,68 m 6512,-21 c -24,4.97 -45.2,24.88 -71,16.95 -29.4,-9.06 -33.4,-55.44 -15.7,-76.95 20.3,-24.57 56.7,-29.75 86.7,-30 m -2274,90 c -23.8,5.46 -44.3,24.08 -70,17.07 -31,-8.42 -33.6,-56.39 -15.7,-78.07 19.6,-23.68 56.9,-28.76 85.7,-29 m -5436,90 c -24.2,5 -45,24.63 -71,16.96 -29.2,-8.64 -33.7,-55.82 -15.8,-76.96 20.7,-24.41 56.5,-29.75 86.8,-30 m -2384,90 c -23.6,4.89 -44.6,24.51 -70,17.21 -30,-8.63 -34.7,-55.21 -16.7,-77.21 20.2,-24.55 56.8,-29.75 86.7,-30 m -1223,90 c -24,4.97 -45.2,24.89 -71,16.95 -29.29,-9.02 -33.38,-55.48 -15.7,-76.95 20.3,-24.56 56.7,-29.75 86.7,-30 m -3911,90 c -23.62,4.89 -44.61,24.54 -70,17.21 -29.96,-8.64 -34.7,-55.26 -16.67,-77.21 20.12,-24.51 56.83,-29.75 86.67,-30 m -540,90 c -23.99,4.97 -45.21,24.89 -71,16.95 -29.29,-9.02 -33.37,-55.48 -15.67,-76.95 20.25,-24.56 56.7,-29.75 86.67,-30 m -4652,90 c -23.352,5.35 -44.763,24.5 -70,17.21 -31.025,-8.95 -33.899,-56.14 -15.671,-78.21 19.691,-23.84 56.666,-28.76 85.671,-29 m 19638,-36.58 c 20,-2.63 41.3,1.31 53.7,18.58 5.6,7.79 16.2,32.95 1.3,36.68 -6.7,1.67 -15.2,0.32 -22,0.32 l -47,0 c -6.7,0 -18.2,2.2 -24,-1.6 -7.2,-4.78 -4,-15.54 -1.8,-22.4 6.3,-19.72 20,-28.97 39.8,-31.58 m -2015,6.58 c 21.5,-7 44.4,-9.06 67,-6.28 9.9,1.21 20.9,4.48 26.8,13.29 9.8,14.95 6.2,38.93 6.2,55.99 l 0,45 c 0,5.66 1.5,13.55 -4.1,17.06 -4,2.56 -9.5,2.57 -13.9,4.47 -18.9,8.17 -42.2,19.1 -63,8.81 -28.2,-13.97 -25.3,-61.74 -2,-78.85 21.4,-15.74 56.9,-10.49 82,-10.49 m -274,-6 c 0.3,-15.9 5.1,-31.45 18,-41.61 18,-14.17 55.1,-11.64 71.8,3.28 8.1,7.19 23.7,35.93 9.2,43.3 -4.4,2.24 -11.2,1.03 -16,1.03 l -37,0 c -14.2,0 -35.3,4.38 -46,-6 -5.2,9.84 -3.6,26.21 -2.3,37 1.8,14.7 3.1,30.82 12.7,43 21.6,27.56 66.8,22.7 89.6,0 m -1880,-80 c 0.3,-15.29 4.5,-31.12 17,-40.96 24.7,-19.41 71.6,-10.58 83.5,18.96 2.7,6.47 7,19.18 1.4,24.85 -5.6,5.56 -17.7,3.15 -24.9,3.15 l -51,0 c -10.1,0 -18.3,1.47 -26,-6 -5.6,10.25 -3.6,26.76 -2.3,38 1.7,14.28 3.1,30.27 12.6,42 21.9,27.21 66.6,22.92 89.7,0 M 9539,1034.42 c 20.04,-2.66 41.33,1.3 53.7,18.58 5.58,7.79 16.17,32.95 1.3,36.68 -6.66,1.67 -15.15,0.32 -22,0.32 l -47,0 c -6.67,0 -18.22,2.2 -23.98,-1.6 -7.22,-4.78 -4.03,-15.54 -1.84,-22.4 6.27,-19.7 20.05,-28.95 39.82,-31.58 M 7957,1084 c 0.33,-15.9 5.06,-31.45 18,-41.61 18.05,-14.17 55.12,-11.64 71.82,3.28 8.04,7.19 23.64,35.93 9.18,43.3 -4.62,2.35 -11.96,1.03 -17,1.03 l -37,0 c -13.97,0 -34.4,4.25 -45,-6 -5.25,9.83 -3.56,26.21 -2.29,37 1.74,14.71 3.13,30.81 12.68,43 21.6,27.56 66.85,22.69 89.61,0 m -2252,-80 c 0.33,-15.75 5.19,-31.55 18,-41.61 18.05,-14.17 55.12,-11.64 71.82,3.28 8.06,7.2 23.7,35.9 9.18,43.3 -4.62,2.35 -11.96,1.03 -17,1.03 l -37,0 c -13.97,0 -34.4,4.25 -45,-6 -5.24,9.82 -3.58,26.22 -2.29,37 1.76,14.71 3.14,30.83 12.68,43 21.6,27.56 66.85,22.69 89.61,0 m -711,-80 c 0.64,-14.81 4.62,-29.59 16.01,-39.81 18.02,-16.17 57.57,-14.19 74.81,2.14 7.8,7.39 22.46,35.36 8.18,42.64 -4.62,2.35 -11.96,1.03 -17,1.03 l -37,0 c -13.97,0 -34.4,4.25 -45,-6 -3.88,8.06 -2,19.2 -2,28 0,17.28 1.63,37.72 12.53,52 21.23,27.8 67.06,22.4 89.47,0 M 2157,1034.42 c 19.79,-2.6 41.52,1.26 53.56,18.58 5.42,7.8 16.44,32.91 1.44,36.68 -6.66,1.67 -15.15,0.32 -22,0.32 l -47,0 c -6.67,0 -18.22,2.2 -23.98,-1.6 -7.25,-4.79 -3.99,-15.52 -1.84,-22.4 6.16,-19.8 20.05,-28.97 39.82,-31.58 M 1806,1084 c 1.04,-13.21 3.64,-27 13.17,-36.91 17.63,-18.33 57.97,-18.36 76.79,-1.76 7.96,7.02 23.76,34.64 11.02,43.07 -4.47,2.95 -11.87,1.6 -16.98,1.6 l -39,0 c -13.97,0 -34.4,4.25 -45,-6 -3.14,7.43 -2,16.07 -2,24 0,21.96 2.08,46.82 19.09,62.81 20.44,19.22 66.06,15.22 82.91,-6.81 m 7412,-142 -1,54 0,104 M 1629,1022 c -6.1,11.43 -2,33.11 -2,46 l 0,112 m 16093,-161 0,161 m -513,-161 0,161 m -4639,-161 0,161 m -10271,-161 0,161 m 8452,-60 c 1.2,-27.02 10.9,-52.96 17.4,-79 3,-12.09 3.9,-24.5 15.6,-31 m 1,-9 c 0,9.73 7.7,11.46 10.4,20 6.8,21.34 11.2,43.46 17.3,65 2.2,7.68 8.9,25 5,32.68 -2.1,4.19 -12.8,2.32 -16.7,2.32 l -34,0 c -4.7,0 -11.5,-1.26 -16,0.45 -5.8,2.24 -6.8,10.28 -8.1,15.55 -3.9,15.34 -8.7,30.5 -11.9,46 m 10213,-184 0,119 c 0,14.44 -3.1,37.89 6.4,50 18,23.06 49.6,8.29 69.6,-1.74 5.2,-2.61 17.5,-2.8 20.3,-8.54 1.8,-3.75 0.7,-9.67 0.7,-13.72 l 0,-32 0,-113 m -4499,0 0,17 m -1135,-17 0,180 m -296,-180 0,18 m -933,-18 0,21 m -263,-21 0,180 m -503,-180 0,180 m -535,-180 0,180 m -1141,-180 0,18 m -79,-18 0,180 m -1852,-180 0,180 m -1663,-180 0,11 m -4273,-11 0,180 m 17755,-38 c 6,44.33 85.2,56.62 92.7,8 1,-6.45 1.1,-12.54 0.1,-19 -8.4,-55.33 -93.1,-27.2 -95.8,-87 -0.5,-11.71 1.9,-24.15 10.3,-32.83 25.3,-26.05 77.4,-10.634 83.7,24.83 m -943,106 c 4.7,12.44 9,24.4 21,31.73 18.2,11.1 52.7,10.88 66.2,-7.73 7.7,-10.67 7.5,-25.59 5.5,-38 -7.7,-49.64 -79.7,-25.87 -92.9,-72 -1.9,-6.39 -2.2,-13.4 -1.7,-20 3.5,-51.539 85.5,-47.454 93.9,0 m -675,106 c 5.8,45.31 85.4,56.05 92.8,7 0.9,-5.96 0.9,-12.05 -0.1,-18 -9.2,-55.06 -93.1,-27.39 -95.7,-87 -0.5,-11.71 1.7,-24.21 10.2,-32.91 25.2,-25.997 77.5,-10.497 83.8,24.91 m -352,133 c -24.9,5.15 -54.1,21.83 -78,3.47 -28.2,-21.68 -28.1,-72.31 -24.3,-104.47 1,-8.52 0.9,-16.55 2.9,-25 3.6,-14.73 8.3,-30.29 22.4,-38.47 25,-14.474 52.5,2.86 77,8.47 m -1660,10 c 27.6,-7.52 50.8,-34.641 82,-20.2 16.5,7.64 15,31.05 15,46.2 l 0,131 m -721,-181 0,181 m -138,-180.575 c 26.4,-3.595 46.5,12.545 55.7,36.575 11.5,30.33 11.4,67.94 2.4,99 -5.8,20.35 -19.7,40.69 -42.1,43.72 -6.6,0.88 -12.4,0.94 -19,-0.01 -47,-6.74 -47.4,-70.61 -47,-105.71 0.1,-10.86 2.1,-21.72 5.5,-32 7.3,-21.95 20.7,-38.34 44.5,-41.575 M 16347,998 l 0,113 c 0,12.36 4.3,34.8 -1.4,45.89 -3.3,6.33 -13.8,6.26 -19.6,9.11 -20,9.81 -52.6,25.57 -70.6,2 -9.3,-12.16 -6.4,-35.58 -6.4,-50 l 0,-119 m -84,169 c -24.9,5.15 -54.1,21.83 -78,3.47 -28.2,-21.72 -28.1,-72.26 -24.3,-104.47 1,-8.52 0.9,-16.55 2.9,-25 3.7,-14.8 8.2,-30.24 22.4,-38.47 25.3,-14.668 52.1,3.33 77,8.47 m -377,129 c 2.7,12.85 9.3,25.39 21,32.12 29.1,16.73 73.8,3.79 72.9,-34.12 -0.5,-17.89 -8.1,-34.6 -24.9,-42.6 -26.3,-12.53 -65.1,-9.28 -70.6,-46.4 -0.9,-6.35 -0.9,-12.64 -0.1,-19 6,-47.522 88,-42.219 92.7,4 m -1526,106 c 2.6,13.61 10.1,26.91 23,33.34 29.3,14.65 71.7,1.83 70.7,-35.34 -0.4,-17.9 -7.6,-33.13 -23.7,-41.95 -22.1,-12.1 -52,-7.5 -67,-32.05 -2.5,-4.15 -3.6,-9.32 -4.6,-14 -1.3,-5.62 -1.8,-11.25 -1.1,-17 6.1,-49.68 86.5,-47.057 93.7,1 m -408,-36.576 c 29.5,-3.919 47.6,16.006 57.4,41.576 3.9,10.11 5,21.32 5.7,32 2.8,41.27 -2.9,100.85 -54.1,106.56 -26.9,3 -43.4,-18.27 -52.4,-40.56 -4.4,-10.96 -5.9,-22.31 -6.7,-34 -2.7,-39.32 0.7,-99.01 50.1,-105.576 M 13336,1133 c -3.4,17.62 -14.2,34.73 -31,42.35 -26.9,12.18 -60.2,-4.24 -70.8,-30.35 -14.2,-35 -16.2,-86.78 4.3,-120 16.5,-26.853 55.3,-37.344 80.5,-15.7 11.4,9.74 13.5,20.77 19,33.7 m -388,99 c 4.8,12.81 9.4,24.33 22,31.53 17.6,10.04 50.8,9.65 64.1,-7.57 8.3,-10.89 8.4,-24.98 6.6,-37.96 -6.9,-50.73 -80.2,-26.46 -93.1,-73 -1.9,-6.7 -2,-14.1 -1.5,-21 3.4,-50.218 84.9,-46.311 92.9,0 m -303,-35.576 c 29.5,-3.919 47.6,16.006 57.4,41.576 3.9,10.18 5,21.26 5.7,32 2.8,41.27 -2.9,100.85 -54.1,106.56 -26.9,3 -43.4,-18.27 -52.4,-40.56 -4.6,-11.34 -5.9,-22.94 -6.7,-35 -2.7,-39.13 1.1,-98.07 50.1,-104.576 M 12066,1168 c -24.6,5.63 -54.4,21.62 -78,3.47 -27.9,-21.49 -28,-71.6 -24.3,-103.47 1,-8.1 0.8,-15.92 2.5,-24 3.2,-15.25 8.3,-32.1 22.8,-40.47 25,-14.474 52.5,2.86 77,8.47 m -4287,10 c 27.56,-7.52 50.77,-34.641 82,-20.2 16.52,7.64 15,31.05 15,46.2 l 0,131 m -516,-181 0,119 c 0,14.91 -3.66,37.05 5.51,50 17.36,24.5 50.44,9.34 70.49,-0.74 5.23,-2.63 17.34,-2.76 20.11,-8.54 1.96,-4.09 0.89,-10.3 0.89,-14.72 l 0,-31 0,-113 m -596,-1 0,113 c 0,12.36 4.33,34.8 -1.43,45.89 -3.38,6.51 -14.63,6.57 -20.57,9.65 -19.47,10.12 -52.07,24.33 -69.44,1.45 -9.31,-12.27 -6.56,-35.43 -6.56,-49.99 l 0,-119 m -141,-0.575 c 26.96,-3.669 46.51,12.345 56.2,36.575 11.98,29.95 12.31,69.45 2.13,100 -6.83,20.51 -19.36,39.61 -42.33,42.72 -60.94,8.23 -68.29,-66.03 -65.09,-109.72 0.7,-9.57 2.05,-18.88 5.09,-28 7.23,-21.67 20.4,-38.36 44,-41.575 M 6369,998 l 0,113 c 0,12.36 4.33,34.8 -1.43,45.89 -3.29,6.33 -13.78,6.26 -19.57,9.11 -19.98,9.81 -52.6,25.57 -70.58,2 -9.27,-12.16 -6.42,-35.58 -6.42,-50 l 0,-119 m -789,135 c -4.69,14.75 -10.92,27.84 -24,37.21 -22.37,16.02 -55.75,6.19 -71.47,-14.21 -20.8,-26.99 -21.15,-78.65 -11.76,-110 4.76,-15.87 13.6,-32.8 28.23,-41.65 33.51,-20.283 72.9,1.05 80,37.65 m -1357,-45 0,120 c 0,14.52 -2.73,37.74 6.56,49.99 17.35,22.89 49.99,8.66 69.44,-1.45 5.74,-2.98 17.93,-3.18 20.85,-9.67 5.37,-11.94 1.15,-33.85 1.15,-46.87 l 0,-112 m -438,170 c -24.59,5.64 -54.39,21.63 -78,3.47 -28.3,-21.76 -27.22,-71.47 -24.17,-103.47 0.81,-8.52 0.73,-16.58 2.8,-25 3.7,-15.13 7.78,-30.87 22.37,-39.32 25.19,-14.581 52.22,2.64 77,8.32 m -276,-14 0,120 c 0,14.36 -3.71,36.7 5.43,49 17.93,24.15 50.11,9.61 70.57,-0.74 5.19,-2.62 17.39,-2.86 20.11,-8.54 1.96,-4.09 0.89,-10.3 0.89,-14.72 l 0,-31 0,-113 m -745,-1 0,181 m -150,-46 c -8.83,42.79 -59.15,62.03 -90.96,29 -22.11,-22.96 -23.62,-65.21 -19.75,-95 2.92,-22.51 10.38,-46.34 29.71,-60.21 32.96,-23.644 75.07,-0.58 82,36.21 m -246,-44.575 c 26.46,-3.601 46.54,12.545 55.68,36.575 11.57,30.41 11.43,67.85 2.46,99 -5.86,20.35 -19.75,40.69 -42.14,43.72 -28.54,3.85 -47.82,-11.86 -58.2,-37.72 -11.91,-29.69 -12.42,-69.66 -2.32,-100 7.32,-21.95 20.75,-38.34 44.52,-41.575 M 1184,1133 c -4.39,13.72 -9.58,26.15 -21,35.67 -19.34,16.14 -51.39,12.11 -68.91,-4.84 -8.86,-8.57 -13.66,-20.29 -17.34,-31.83 -10.14,-31.79 -9.06,-82.26 11.18,-110 15.36,-21.06 48.24,-33.49 72.07,-17.53 14.41,9.65 19.71,21.94 25,37.53 m -482,91 c -4.275,15.18 -10.709,28.69 -24,38.21 -22.371,16.02 -55.751,6.19 -71.471,-14.21 -20.705,-26.87 -20.26,-75.59 -12.629,-107 4.82,-19.84 16.926,-39.77 36.1,-48.36 32.429,-14.509 68.635,8.56 73,42.36 m 20772,-47 75,0 m -229,36 c 2.3,-9.93 7.7,-20.98 16,-27.21 18.9,-14.146 61.3,-13.377 73.1,10.21 8.3,16.58 5.7,37.08 5.7,55 l 0.2,108 m -241,-182 75,0 m -782,21 c 19.4,-10.21 41.6,-20.938 64,-21 m -66,0 0,183 m -465,-93 c 0,-27.75 1.7,-59.19 24,-78.82 21.6,-18.994 58.3,-13.496 75.3,8.82 8.3,10.92 11.3,26.63 12.5,40 0.7,6.67 4.2,23.24 -0.4,28.68 -3.8,4.46 -15.2,2.32 -20.4,2.32 l -58,0 -24,0 c -3.1,0.01 -7.6,-0.62 -8.7,3.15 -2.3,7.92 0.8,21.91 2.6,29.85 3.6,16.03 8.8,32.18 21.1,43.83 23.3,21.91 62.6,19.59 82,-5.83 m -538,-162 75,0 m -241,90 c 0,-27.95 1.5,-59.03 24,-78.82 22,-19.346 59.1,-13.105 75.9,9.82 8.1,11.02 11.1,27.61 12,41 0.4,6.44 3.9,21.41 -0.5,26.68 -3.8,4.46 -15.2,2.32 -20.4,2.32 l -58,0 -24,0 c -3.1,0.01 -7.6,-0.62 -8.7,3.15 -2.3,7.67 0.6,21.16 2.3,28.85 3.5,16.11 8.2,32.03 20.4,43.91 23.3,22.62 63.2,21.02 83,-4.91 m -462,-126 c 4.1,-10.71 8.2,-21.38 18,-28.36 20.3,-14.517 62.3,-10.324 72.8,14.36 6.9,16.1 3.8,35.96 4.1,53 0.4,35.66 0.1,71.34 0.1,107 m -215,-161 c 19.5,-10.27 41.5,-20.938 64,-21 m -66,0 0,183 m -149,-183 75,0 m -737,0 75,0 m -351,90 c 0,-22.71 0.1,-48.65 13.8,-68 20.6,-29.262 65.9,-29.52 86.6,0 11,15.7 11.9,39.53 12.6,58 0.4,13.1 -11.5,11 -21,11 l -67,0 c -4.8,0 -22,-2.6 -24.4,2.32 -3.8,7.63 0.7,24.71 2.4,32.68 3.5,16.92 10.4,33.35 24,44.67 23.8,19.86 60.1,14.48 79,-8.67 m -225,-162 1,21 c 20.9,-9.27 41.5,-20.935 65,-21 m -475,0 75,0 m -179,0 1,21 c 21.1,-9.34 41.3,-20.935 65,-21 m -254,90 c 0,-25.92 0.5,-56.22 20.2,-75.83 22.5,-22.468 62,-17.61 80.2,7.83 7.8,11 10.6,27.78 11.5,41 0.5,6.7 3.3,20.22 -1.5,25.68 -3.9,4.44 -15.1,2.32 -20.4,2.32 l -60,0 c -5.4,0 -26.8,-2.98 -29.4,2.32 -4,8.21 0.9,26.17 2.7,34.68 3.7,17.11 11.5,33.42 25.7,44.32 24.3,18.76 58.2,11.25 77,-10.32 m -279,-162 c 0,3.4 -1.7,13.81 2.3,15.22 8.1,2.84 22.5,-6.74 29.7,-9.64 17.5,-7.067 38.2,-6.114 52,7.43 20.9,20.45 21,52.57 21,79.99 0,15.01 -0.5,30.39 -4.1,45 -3.7,14.74 -9.9,30.85 -23.9,38.65 -26.7,14.86 -49.4,-3.47 -76,-5.65 l -1,-90 1,-65 m -307,166 0,-117 0,-31 c 0,-3.66 -1,-9.39 1,-12.61 3.1,-4.82 12.1,-5.16 17,-7.15 16.8,-6.84 29,-14.227 48,-14.24 m -1002,90 c 0,-23.8 -0.3,-51.35 15.4,-71 21,-26.217 64.1,-25.463 83.8,2 10.6,14.78 11.5,34.57 12.7,52 0.3,4.46 1.6,13.18 -2.2,16.4 -4.7,3.9 -16.9,1.6 -22.7,1.6 l -60,0 c -5,0 -23.9,-2.76 -26.4,2.32 -3.8,7.68 0.2,24.7 2,32.68 4,18.29 11.3,34.62 26.4,46.48 22.3,17.46 60.1,12.83 76,-10.48 m -248,-162 75,0 m -305,36 c 7.5,-35.659 64.6,-52.6 87.1,-19.99 7.9,11.41 7.9,27.69 7.9,40.99 l 0,69 c 0,8.79 3.7,28.23 -1,35.72 -3.5,5.5 -14.5,5.39 -20,7.81 -18.1,7.98 -34.4,18.7 -55,10.01 -29.1,-12.26 -27.6,-59.3 -8.6,-79.37 20.4,-21.45 55.5,-25.94 83.6,-26.17 m -216,108 0,-116 0,-31 c 0,-3.71 -1,-9.43 1,-12.72 3,-4.74 12.3,-5.21 17,-7.52 16.5,-8 29,-14.747 48,-14.76 m -216,0 75,0 m -407,90 c 0,-23.48 -0.5,-51.77 15.3,-71 21.3,-25.838 64,-25.797 83.9,2 10.6,14.78 11.5,34.57 12.7,52 0.3,4.46 1.6,13.18 -2.2,16.4 -4.7,3.9 -16.9,1.6 -22.7,1.6 l -60,0 c -5,0 -23.9,-2.76 -26.4,2.32 -3.8,7.68 0.2,24.7 2,32.68 4,18.29 11.3,34.62 26.4,46.48 22.3,17.46 60.1,12.83 76,-10.48 m -556,20 0,-111 0,-31 c 0,-4.01 -1.1,-10.01 0.6,-13.73 2.6,-5.56 13.6,-6.14 18.4,-9.11 5,-3.12 8.7,-7.9 14,-10.77 16,-8.704 45.7,-11.104 58.5,4.65 10.2,12.67 6.5,34.82 6.5,49.96 l 0,122 m -508,-183 75,0 m -229,36 c 2.3,-10.06 7.6,-20.9 16,-27.24 18.7,-14.101 61.5,-13.396 73,10.24 8.1,16.75 5.8,36.92 5.8,55 l 0.2,108 m -241,-182 75,0 m -973,0 1,21 c 21.1,-9.34 41.3,-20.935 65,-21 m -216,0 76,0 m -352,90 c 0,-27.18 1.7,-58.26 23,-77.91 21.7,-19.935 58.8,-14.825 76.3,7.91 8.5,10.99 11.2,26.53 12.5,40 0.7,6.67 4.2,23.24 -0.4,28.68 -3.8,4.46 -15.2,2.32 -20.4,2.32 l -58,0 -24,0 c -3.1,0.01 -7.6,-0.62 -8.7,3.15 -2.2,7.53 0.7,21.23 2.4,28.85 3.4,16.35 8.8,33 21.3,44.83 23.3,21.92 62.6,19.63 82,-5.83 m -514,20 0,-116 0,-31 c 0,-3.71 -1,-9.43 1,-12.72 3,-4.74 12.3,-5.21 17,-7.52 16.5,-8 29,-14.747 48,-14.76 m -292,0 75,0 m -177,21 c 19.6,-10.31 41.4,-20.938 64,-21 m -66,0 0,183 m -176,-147 c 2.8,-10.04 7.5,-20.55 16,-27.07 18.8,-14.361 61.3,-13.469 73.1,10.07 8.3,16.54 5.7,37.08 5.7,55 l 0.2,108 m -271,-182 c 0,3.39 -1.7,13.79 1.6,15.79 6.1,3.67 23,-6.71 28.4,-9.35 13.6,-6.641 34.1,-8.014 47,0.78 33.5,22.77 30.5,78.34 26.3,113.78 -1.3,10.49 -2.7,21.11 -6.8,31 -13.3,32.79 -44.4,34.66 -73.5,23.95 -5.8,-2.13 -18.2,-1.47 -21.7,-7.23 -4.8,-7.95 -1.3,-26.55 -1.3,-35.72 l 0,-81 c 0,-10.27 -2.9,-25.83 2,-35 m -713,73 c 0,-22.66 0.2,-48.69 13.8,-68 20.6,-29.266 65.9,-29.516 86.6,0 11,15.69 11.9,39.54 12.6,58 0.4,13.1 -11.5,11 -21,11 l -67,0 c -4.8,0 -22,-2.6 -24.4,2.32 -3.8,7.63 0.7,24.71 2.4,32.68 3.5,16.93 10.4,33.34 24,44.67 23.8,19.86 60.1,14.48 79,-8.67 m -181,-162 0,79 c 0,25.59 3.9,54.75 -0.1,79.98 -1.2,7.24 -13.2,7.11 -18.9,8.66 -16.6,4.54 -34.8,14.1 -51,1.83 -12.4,-9.43 -17,-24.7 -19.3,-39.47 -4.3,-27.81 -5.3,-60.33 0.7,-88 3.1,-14.26 8,-31.22 22.6,-37.94 21.3,-9.801 44,6.12 65,8.94 m -260,23 c 2.3,-9.93 7.7,-20.98 16,-27.21 19,-14.175 61.2,-13.345 73.1,10.21 8.3,16.54 5.7,37.08 5.7,55 l 0.2,108 m -241,-182 75,0 m -253,21 c 19.49,-10.27 41.5,-20.938 64,-21 m -66,0 0,183 m -810,-93 c 0,-28.33 1.39,-58.67 24,-78.83 20.02,-17.843 55.39,-14.121 72.56,5.84 10.35,12.04 14.29,29.46 15.35,44.99 0.43,6.26 3.85,21.55 -0.51,26.57 -3.93,4.52 -15.03,2.43 -20.4,2.43 l -58,0 -24,0 c -3.13,0.01 -7.56,-0.61 -8.68,3.15 -2.47,8.32 0.68,22.54 2.56,30.85 3.71,16.38 9.29,32.23 22.12,43.83 23.86,21.55 61.32,17.33 81,-6.83 m -577,-72 c 0,-27.29 1.56,-58.19 23,-77.91 21.67,-19.921 58.82,-14.837 76.32,7.91 8.37,10.88 11.24,26.63 12.51,40 0.63,6.67 4.15,23.24 -0.43,28.68 -3.76,4.46 -15.15,2.32 -20.4,2.32 l -58,0 -24,0 c -3.12,0.01 -7.57,-0.62 -8.68,3.15 -2.34,7.92 0.76,21.91 2.56,29.85 3.63,16.03 8.78,32.17 21.16,43.83 23.28,21.92 62.57,19.63 81.96,-5.83 m -274,-143 c 4.35,-3.22 9.35,-3.72 14,-6.27 19.22,-10.545 60.56,-24.95 73.95,3.27 7.83,16.52 5.05,38.24 5.05,56 l 0,110 m -183,0 0,-122 0,-32 c 0,-3.55 -1.09,-9.43 1.03,-12.5 3.33,-4.83 12.93,-4.92 17.97,-6.98 21.95,-8.925 56.32,-15.917 69.97,11.48 2.1,4.21 1.03,10.43 1.03,15 l 0,32 0,116 m -602,-183 75,0 m -758,21 c 19.47,-10.26 41.51,-20.938 64,-21 m -66,0 0,183 m -514,-183 75,0 m -410,36 c 3.11,-10.95 8.49,-21.55 18,-28.36 19.4,-13.893 60.31,-10.736 71.61,12.36 7.92,16.18 5.24,36.53 5.24,54 l 0.15,108 m -635,-146 c 2.3,-9.92 7.72,-20.98 16.04,-27.21 18.92,-14.174 61.21,-13.346 73.06,10.21 8.31,16.54 5.75,37.08 5.75,55 l 0.15,108 m -893,-182 76,0 m -241,90 c 0,-24.36 -0.19,-52.21 16.33,-72 21.16,-25.367 63.59,-23.953 82.88,3 10.58,14.78 11.51,34.56 12.7,52 0.31,4.46 1.59,13.18 -2.23,16.4 -4.63,3.9 -16.93,1.6 -22.68,1.6 l -60,0 c -5.03,0 -23.9,-2.76 -26.4,2.32 -3.72,7.57 0.24,24.78 1.98,32.68 4.01,18.29 11.27,34.62 26.42,46.48 22.3,17.47 60.06,12.82 76,-10.48 m -397,-72 c 0,-23.11 0.77,-50.84 15.53,-70 20.88,-27.101 64.3,-26.883 84.54,1 11,15.15 11.61,36.1 12.84,54 0.3,4.42 1.44,12.31 -3.06,14.97 -5.58,3.31 -17.49,1.03 -23.85,1.03 l -59,0 c -5.02,0 -23.91,-2.76 -26.4,2.32 -3.72,7.6 1.23,25.7 2.98,33.68 4.11,18.75 12.28,35.9 28.42,47.21 23.13,16.21 57.51,9.43 74,-12.21 m -362,-162 0,84 0,59 c 0,7.26 2.28,19.15 -0.6,25.86 -2.58,5.98 -15.96,5.28 -21.4,6.91 -21.09,6.32 -47.19,13.54 -64.91,-4.81 -9.2,-9.54 -12.35,-23.39 -14.7,-35.96 -5.42,-28.96 -3.66,-62.11 1.2,-91 2.51,-14.94 9.62,-30.89 23.41,-38.64 22.38,-12.569 53.28,2.23 76,6.64 m -981,78 c 0,-25.1 0.13,-54.24 18.17,-73.99 22.08,-24.147 63.48,-20.554 82.03,5.99 9.85,14.09 10.58,33.52 11.71,50 0.32,4.62 1.72,14.07 -2.23,17.4 -4.49,3.78 -16.11,1.6 -21.68,1.6 l -60,0 c -5.14,0 -24.86,-2.83 -27.4,2.32 -3.93,7.99 0.68,25.37 2.4,33.68 7.68,37.11 42.51,68.8 82,51.94 8.86,-3.78 14.63,-10.03 21,-16.94 m -249,-162 76,0 m -697,0 1,21 c 20.91,-9.27 41.49,-20.935 65,-21 m -396,0 75,0 m -713,90 c 0,-25.12 -0.05,-55.8 19.04,-74.96 22.63,-22.716 61.21,-19.262 80.43,5.96 7.63,10.02 10.19,24.77 11.36,37 0.68,7.16 4.54,24.78 -0.43,30.68 -3.76,4.46 -15.15,2.32 -20.4,2.32 l -56,0 -25,0 c -3.13,0.01 -7.56,-0.62 -8.68,3.15 -1.66,5.57 0.38,12.22 0.64,17.85 1.09,23.97 10.83,49.97 32.04,63.19 22.08,13.75 57.77,9.56 72,-13.19 M 902,1033 c 3.756,-10.81 8.333,-21.44 18,-28.36 21.305,-15.26 62.08,-9.586 73.204,15.36 6.648,14.91 3.645,35.1 3.645,51 L 997,1179 m -240,-182 75,0 m -422,90 c 0,-24.38 -0.138,-52.16 16.329,-72 21.358,-25.733 63.423,-23.518 83.114,3 10.409,14.02 11.323,34.29 12.468,51 0.316,4.62 1.718,14.07 -2.229,17.4 -4.495,3.78 -16.115,1.6 -21.682,1.6 l -60,0 c -5.145,0 -24.862,-2.83 -27.397,2.32 -3.644,7.4 0.245,23.91 1.797,31.68 3.743,18.75 11.747,36.58 27.6,48.24 22.263,16.36 59.598,12.04 75,-11.24 M 237,997 c 0,3.39 -1.722,13.79 1.603,15.79 6.108,3.67 22.999,-6.71 28.397,-9.35 13.567,-6.641 34.06,-8.014 47,0.78 33.463,22.76 30.533,78.38 26.285,113.78 -1.258,10.49 -2.708,21.11 -6.739,31 -13.358,32.79 -44.489,34.66 -73.546,23.95 -5.792,-2.13 -18.156,-1.47 -21.682,-7.23 C 233.451,1157.77 237,1139.17 237,1130 l 0,-81 c 0,-10.27 -2.893,-25.83 2,-35 m 14665,-19 c -10.9,18.66 -20.1,38.67 -29.8,58 -3.7,7.57 -7.5,17.88 -17.2,19.29 -8.8,1.28 -13.7,-10.11 -16.8,-16.29 -9.9,-19.91 -21.6,-39.46 -30.2,-60 M 0,992 l 13,0 m 9228,-52 c 0.01,10.087 7.51,12.352 9.68,21 1.49,5.949 0.06,13.021 -0.51,19 -1.68,17.705 -3.33,36.27 -21.17,45 m 3212,-93 0,176 c 0,16.14 -1.4,32.99 0.7,49 0.7,5.6 0.8,12.36 4.7,16.87 9.2,10.61 35.1,6.13 47.6,6.13 m -7715,-248 0,176 c 0,16.14 -1.36,32.99 0.72,49 0.73,5.6 0.81,12.36 4.7,16.87 9.16,10.61 35.08,6.13 47.58,6.13 m -1891,-248 0,176 c 0,16.02 -1.69,33.14 0.58,49 0.79,5.55 1,12.41 4.84,16.87 9.16,10.61 35.08,6.13 47.58,6.13 M 779,932 l 0,176 c 0,16.14 -1.361,32.99 0.718,49 0.728,5.6 0.811,12.36 4.701,16.87 9.16,10.61 35.077,6.13 47.581,6.13 m 20666,-249 0,179 c 0,15.35 -0.5,30.73 0.9,46 0.6,6.06 1,13.98 5.5,18.61 9.5,9.69 34.3,5.39 46.6,5.39 m -353,-249 0,177 c 0,15.38 -0.2,30.69 0.9,46 0.5,6.67 0.6,14.58 5.4,19.87 9.6,10.63 34.9,6.13 47.7,6.13 m -1660,-249 0,179 c 0,15.35 -0.5,30.73 0.9,46 0.6,6.06 1,13.98 5.5,18.61 9.7,9.84 35.1,5.39 47.6,5.39 m -847,-249 0,178 c 0,15.62 -0.8,31.48 0.8,47 0.7,6.22 0.9,13.93 5.6,18.72 9.4,9.63 34.4,5.28 46.6,5.28 m -715,-249 0,177 c 0,15.31 -0.7,30.78 0.8,46 0.7,6.78 0.6,14.51 5.5,19.89 9.6,10.61 34.8,6.11 47.7,6.11 m -858,-249 0,177 c 0,15.82 -1.3,32.31 0.7,48 0.8,5.84 0.7,13.16 4.7,17.87 9.2,10.61 35.1,6.13 47.6,6.13 m -1903,-249 0,177 c 0,15.38 -0.2,30.69 0.9,46 0.5,6.72 0.7,14.52 5.4,19.89 9.4,10.64 35,6.11 47.7,6.11 m -556,-249 0,176 c 0,15.38 -0.2,30.68 0.9,46 0.5,7.03 0.6,15.19 5.5,20.87 9.3,10.68 35,6.13 47.6,6.13 m -1247,-249 0,179 c 0,14.98 -0.7,30.1 0.8,45 0.7,6.44 0.7,14.62 5.6,19.61 9.5,9.69 34.3,5.39 46.6,5.39 m -353,-249 0,177 c 0,15.38 -0.2,30.69 0.9,46 0.5,6.72 0.7,14.52 5.4,19.89 9.4,10.64 35,6.11 47.7,6.11 m -2012,-249 0,178 c 0,15.62 -0.8,31.48 0.8,47 0.7,6.13 1,13.89 5.6,18.61 9.5,9.73 34.3,5.39 46.6,5.39 m -1702,-249 0,176 c 0,15.38 -0.16,30.68 0.91,46 0.49,7.03 0.58,15.19 5.51,20.87 9.27,10.68 34.98,6.13 47.58,6.13 m -2285,-249 0,177 c 0,15.31 -0.69,30.78 0.83,46 0.68,6.78 0.57,14.51 5.44,19.89 9.6,10.61 34.87,6.11 47.73,6.11 m -1253,-249 0,177 c 0,15.31 -0.69,30.78 0.83,46 0.68,6.78 0.57,14.51 5.44,19.89 9.6,10.61 34.87,6.11 47.73,6.11 m -4516,-249 0,179 c 0,15.29 -0.79,30.8 0.83,46 0.67,6.22 0.91,13.93 5.56,18.72 9.36,9.63 34.43,5.28 46.61,5.28 M 1,1118 c 4.56358,2.84 10.9042,6.12 14.2978,10.33 4.2141,5.22 5.1707,13 9.142,18.67 10.5115,15.01 23.6167,25.93 41.5602,30.52 45.141,11.55 105.438,-12.78 93.112,-67.52 -1.669,-7.41 -4.265,-14.77 -8.749,-21 C 117.152,1042.86 21.9428,1064.9 14.1451,997 7.82962,942.007 71.8654,918.107 116,936.093 c 22.354,9.11 32.963,28.274 40,49.907 m 18109,-66 0,259 m -5390,-259 0,18 m -5097,-18 0,259 m -3911,-259 0,18 m 17253,-19 0,197 c 0,14.03 -0.4,28.04 0.9,42 0.6,5.71 0.9,13.5 5.3,17.7 3.4,3.16 8.5,3.25 12.8,4.3 m -1211,-261 0,261 m -705,-261 0,197 c 0,13 -0.1,26 0,39 0,6.05 0.4,14.97 4.6,19.78 3.3,3.88 8.7,4.07 13.4,5.22 m -606,-226 c 7.5,-9.251 15.7,-18.485 24,-26.999 3.6,-3.621 7.5,-7.938 13,-7.722 6.8,0.268 11.2,6.055 15.3,10.721 7.6,8.585 15.6,16.902 23.7,25 m -1069,-36 0,20 m -1475,-20 0,261 m -762,-261 0,19 m -1492,-19 0,20 m -503,-20 0,19 m -1755,-19 0,20 m -1852,-20 0,20 m -638,-20 0,197 c 0,13.41 0.22,26.65 0.96,40 0.34,5.98 0.45,14.02 4.61,18.78 3.39,3.87 8.76,4.07 13.43,5.22 m -3456,-261 0,197 c 0,13.72 -0.18,27.35 0.91,41 0.49,6 0.6,14.26 5.32,18.7 3.37,3.16 8.5,3.25 12.77,4.3 m -2316,-261 0,197 c 0,13 -0.06,26 0,39 0.03,6.05 0.42,14.97 4.57,19.78 3.36,3.88 8.77,4.07 13.43,5.22 m -587,-261 0,20 m -76,-20 0,196 c 0,13.65 -0.32,27.35 0.01,41 0.16,6.28 0.99,14.85 5.6,19.58 3.25,3.33 8.22,3.15 12.39,4.42 m -1547,-261 0,197 c 0,13.41 0.22,26.65 0.96,40 0.34,5.98 0.45,14.02 4.61,18.78 3.39,3.87 8.76,4.07 13.43,5.22 m 19376,-262 -34,41 m -2114,-41 -34,41 m -1746,-41 -34,41 m -7133,-41 -34,41 m -206,-41 0,79 c 0,4.04 -2.33,22.82 2.32,24.07 8.99,2.43 21.15,-8.63 27.68,-12.98 15.14,-10.089 46.85,-16.837 60.78,-1.05 11.16,12.66 8.22,35.43 8.22,50.96 l 0,121 m -621,-261 0,173 0,50 c 0,6.73 1.82,16.66 -0.74,22.96 -2.71,6.64 -13.34,6.63 -19.26,8.34 -19.36,5.6 -38.97,12.88 -58,0.6 -30.94,-19.97 -30.1,-74.56 -26.29,-106.9 0.93,-7.8 0.84,-15.22 2.5,-23 3.07,-14.4 7.95,-29.62 20.79,-38.25 25.13,-16.889 53.71,2.03 79,7.25 m -794,-94 34,41 m -755,-41 0,174 0,50 c 0,6.46 1.72,15.9 -0.74,21.96 -2.83,6.94 -14.16,6.64 -20.26,8.64 -19,6.23 -39.56,12.14 -58,-0.2 -29.12,-19.48 -27.39,-66.72 -26.04,-97.4 0.45,-10.35 0.59,-20.87 2.92,-31 3.17,-13.79 6.89,-29.2 19.12,-37.96 25.91,-18.525 54.51,0.49 81,5.96 m -1411,-94 -34,41 m -577,-41 -34,41 m -105,-41 0,173 0,50 c 0,6.73 1.82,16.66 -0.74,22.96 -2.77,6.79 -13.31,6.38 -19.26,8.26 -19.9,6.29 -40.76,12.99 -60,-0.27 -28.98,-19.98 -27.21,-69.03 -25.09,-99.95 0.7,-10.26 0.81,-19.91 3.21,-30 3.37,-14.25 7.79,-29.18 20.88,-37.61 25.18,-16.229 53.81,2.41 79,7.61 m -2938,-94 -34,41 m -274,-41 -34,41 m -206,-41 0,79 c 0,4.04 -2.32,22.82 2.32,24.07 9.02,2.43 21.14,-8.83 27.68,-13.18 15.22,-10.13 48.32,-16.799 61.57,0.15 9.76,12.49 6.43,35.2 6.43,49.96 l 0,121 m 10343,-262 0,264 m -8280,-264 0,264 m 6986,-288 29,51" />
</svg>
