<?xml version="1.0" encoding="UTF-8" standalone="no"?>
<!-- Created with Inkscape (http://www.inkscape.org/) -->

<svg
   xmlns:dc="http://purl.org/dc/elements/1.1/"
   xmlns:cc="http://creativecommons.org/ns#"
   xmlns:rdf="http://www.w3.org/1999/02/22-rdf-syntax-ns#"
   xmlns:svg="http://www.w3.org/2000/svg"
   xmlns="http://www.w3.org/2000/svg"
   xmlns:sodipodi="http://sodipodi.sourceforge.net/DTD/sodipodi-0.dtd"
   xmlns:inkscape="http://www.inkscape.org/namespaces/inkscape"
   width="5.40625"
   height="51.53125"
   id="arpeggiato"
   version="1.1"
   inkscape:version="0.48.4 r9939"
   sodipodi:docname="arpeggiato-down.svg">
  <defs
     id="defs4">
    <inkscape:path-effect
       effect="spiro"
       id="path-effect3001"
       is_visible="true" />
    <inkscape:path-effect
       effect="spiro"
       id="path-effect2997"
       is_visible="true" />
  </defs>
  <sodipodi:namedview
     id="base"
     pagecolor="#ffffff"
     bordercolor="#666666"
     borderopacity="1.0"
     inkscape:pageopacity="0.0"
     inkscape:pageshadow="2"
     inkscape:zoom="22.627417"
     inkscape:cx="-11.36354"
     inkscape:cy="13.015799"
     inkscape:document-units="px"
     inkscape:current-layer="layer1"
     showgrid="true"
     inkscape:window-width="1276"
     inkscape:window-height="775"
     inkscape:window-x="0"
     inkscape:window-y="21"
     inkscape:window-maximized="1"
     fit-margin-top="0"
     fit-margin-left="0"
     fit-margin-right="0"
     fit-margin-bottom="0">
    <inkscape:grid
       type="xygrid"
       id="grid2993"
       empspacing="5"
       visible="true"
       enabled="true"
       snapvisiblegridlinesonly="true"
       originx="-159.09375px"
       originy="-703.79968px" />
  </sodipodi:namedview>
  <metadata
     id="metadata7">
    <rdf:RDF>
      <cc:Work
         rdf:about="">
        <dc:format>image/svg+xml</dc:format>
        <dc:type
           rdf:resource="http://purl.org/dc/dcmitype/StillImage" />
        <dc:title />
      </cc:Work>
    </rdf:RDF>
  </metadata>
  <g
     inkscape:label="Calque 1"
     inkscape:groupmode="layer"
     id="layer1"
     transform="translate(-159.09375,-297.03125)">
    <path
       style="fill:none;stroke:none;stroke-width:0.10000000000000001;stroke-linecap:butt;stroke-linejoin:miter;stroke-miterlimit:4;stroke-opacity:1;stroke-dasharray:none"
       d="m 161.88852,297.07876 c 0.86234,0.49088 1.51966,1.33003 1.78974,2.28483 0.27009,0.9548 0.14974,2.01393 -0.32768,2.88379 -0.50732,0.92433 -1.36552,1.59309 -2.08843,2.36067 -0.36145,0.38378 -0.69498,0.80084 -0.9255,1.27497 -0.23052,0.47413 -0.35384,1.01073 -0.28196,1.53301 0.0716,0.52036 0.33192,0.99961 0.65951,1.4102 0.32759,0.4106 0.72256,0.76132 1.10793,1.11825 0.38536,0.35693 0.76629,0.72596 1.05745,1.16315 0.29117,0.43718 0.48938,0.95209 0.471,1.47704 -0.0184,0.52647 -0.25301,1.02683 -0.57008,1.44751 -0.31706,0.42069 -0.71491,0.77237 -1.10799,1.12308 -0.39307,0.35071 -0.78749,0.7071 -1.09542,1.13452 -0.30792,0.42743 -0.52669,0.93677 -0.5224,1.46354 0.004,0.52726 0.23163,1.03322 0.54567,1.45678 0.31404,0.42356 0.71249,0.77588 1.10747,1.12517 0.39499,0.3493 0.79285,0.70244 1.10531,1.12716 0.31246,0.42472 0.53707,0.93223 0.53744,1.45951 3.7e-4,0.52724 -0.22349,1.03504 -0.53543,1.4601 -0.31193,0.42506 -0.70945,0.77855 -1.10427,1.12797 -0.39482,0.34942 -0.79326,0.70161 -1.1077,1.12482 -0.31444,0.42321 -0.54264,0.92856 -0.54849,1.45576 -0.006,0.52655 0.21069,1.03651 0.51679,1.46498 0.30611,0.42848 0.69907,0.78622 1.0913,1.13757 0.39223,0.35135 0.78975,0.70287 1.10796,1.12244 0.3182,0.41956 0.55563,0.91763 0.57984,1.44366 0.0241,0.52434 -0.16574,1.04155 -0.4501,1.48275 -0.28437,0.44119 -0.65986,0.81543 -1.04221,1.17504 -0.38236,0.35962 -0.77637,0.7102 -1.10827,1.11684 -0.33191,0.40665 -0.60234,0.87738 -0.69531,1.39398 -0.0823,0.45753 -0.0217,0.9325 0.11711,1.37617 0.13881,0.44368 0.3536,0.85965 0.58367,1.26361 0.46014,0.80791 0.99735,1.60907 1.13305,2.52887 0.0439,0.29782 0.0439,0.6021 0,0.89992 l 0,3.94568"
       id="path2995"
       inkscape:path-effect="#path-effect2997"
       inkscape:original-d="m 161.88852,297.07876 c 0,0 1.88119,2.76357 1.46206,5.16862 -0.66276,3.80272 -3.29589,1.31617 -3.29589,5.16865 0,3.8525 3.29589,1.31614 3.29589,5.16864 0,3.85248 -3.29589,1.31615 -3.29589,5.16865 0,3.85248 3.29589,1.31614 3.29589,5.16862 0,3.85252 -3.29589,1.31614 -3.29589,5.16865 0,3.8525 3.29589,1.31614 3.29589,5.16865 0,3.85247 -2.63308,1.36592 -3.29589,5.16861 -0.41909,2.40509 0.83242,2.91761 1.83383,5.16865 0.70806,1.59174 0,0.89992 0,0.89992 l 0,3.94568"
       inkscape:connector-curvature="0"
       sodipodi:nodetypes="cssssssssscc" />
    <path
       style="fill:none;stroke:none;stroke-width:0.10000000000000001;stroke-linecap:butt;stroke-linejoin:miter;stroke-miterlimit:4;stroke-opacity:1;stroke-dasharray:none"
       d="m 159.14444,343.57602 2.77549,4.88598 2.52723,-4.8655"
       id="path2999"
       inkscape:path-effect="#path-effect3001"
       inkscape:original-d="m 159.14444,343.57602 2.77549,4.88598 2.52723,-4.8655"
       inkscape:connector-curvature="0"
       sodipodi:nodetypes="ccc" />
  </g>
</svg>
